ONLINE REQUESTS:           35
TIME HORIZON:                  09 8 [09:00-16:59]
TIME BUCKETS IN HORIZON:   4   09 2 [09:00-10:59]     11 2 [11:00-12:59]     13 2 [13:00-14:59]     15 2 [15:00-16:59]
TIME BUCKETS FOR REQUESTS: 2   09 2 [09:00-10:59]     11 2 [11:00-12:59]
----------------------------------------------------------------------------------------------------------------------

NODE 		  VOL 		  TIME WINDOW 				  TIME REQUEST   TIME BUCKET
02439 		  027		  09 7 [09:00-16:59]		  09:01  		 1
02195 		  002		  09 7 [09:00-16:59]		  09:14  		 1
01357 		  001		  09 7 [09:00-16:59]		  09:19  		 1
02399 		  044		  09 7 [09:00-16:59]		  09:33  		 1
02605 		  011		  09 7 [09:00-16:59]		  09:53  		 1
02477 		  002		  09 7 [09:00-16:59]		  09:54  		 1
02309 		  001		  09 7 [09:00-16:59]		  09:59  		 1
02560 		  001		  09 7 [09:00-16:59]		  10:10  		 1
02332 		  003		  09 7 [09:00-16:59]		  10:19  		 1
02136 		  001		  09 7 [09:00-16:59]		  10:22  		 1
02298 		  001		  09 7 [09:00-16:59]		  10:24  		 1
02318 		  001		  09 7 [09:00-16:59]		  10:31  		 1
02234 		  005		  09 7 [09:00-16:59]		  10:34  		 1
50580 		  004		  09 7 [09:00-16:59]		  10:56  		 1
02543 		  003		  09 7 [09:00-16:59]		  11:15  		 2
02439 		  027		  09 7 [09:00-16:59]		  11:16  		 2
02227 		  010		  09 7 [09:00-16:59]		  11:16  		 2
01093 		  001		  09 7 [09:00-16:59]		  11:19  		 2
02273 		  003		  09 7 [09:00-16:59]		  11:28  		 2
02355 		  012		  09 7 [09:00-16:59]		  11:33  		 2
02462 		  002		  09 7 [09:00-16:59]		  11:42  		 2
50555 		  001		  09 7 [09:00-16:59]		  11:43  		 2
02199 		  001		  09 7 [09:00-16:59]		  11:45  		 2
02474 		  003		  09 7 [09:00-16:59]		  11:49  		 2
02477 		  002		  09 7 [09:00-16:59]		  11:52  		 2
02616 		  014		  09 7 [09:00-16:59]		  11:53  		 2
02517 		  001		  09 7 [09:00-16:59]		  11:57  		 2
02352 		  002		  09 7 [09:00-16:59]		  12:20  		 2
02429 		  002		  09 7 [09:00-16:59]		  12:27  		 2
02605 		  011		  09 7 [09:00-16:59]		  12:32  		 2
00816 		  003		  09 7 [09:00-16:59]		  12:33  		 2
50569 		  043		  09 7 [09:00-16:59]		  12:34  		 2
02319 		  003		  09 7 [09:00-16:59]		  12:35  		 2
41146 		  004		  09 7 [09:00-16:59]		  12:47  		 2
02357 		  001		  09 7 [09:00-16:59]		  12:47  		 2
