ONLINE REQUESTS:           273
TIME HORIZON:                  09 8 [09:00-16:59]
TIME BUCKETS IN HORIZON:   4   09 2 [09:00-10:59]     11 2 [11:00-12:59]     13 2 [13:00-14:59]     15 2 [15:00-16:59]
TIME BUCKETS FOR REQUESTS: 2   09 2 [09:00-10:59]     11 2 [11:00-12:59]
----------------------------------------------------------------------------------------------------------------------

NODE 		  VOL 		  TIME WINDOW 				  TIME REQUEST   TIME BUCKET
02189 		  029		  09 7 [09:00-16:59]		  09:03  		 1
02515 		  023		  09 7 [09:00-16:59]		  09:03  		 1
02489 		  029		  09 7 [09:00-16:59]		  09:03  		 1
02397 		  012		  09 7 [09:00-16:59]		  09:03  		 1
02072 		  012		  09 7 [09:00-16:59]		  09:03  		 1
50548 		  011		  09 7 [09:00-16:59]		  09:04  		 1
02430 		  046		  09 7 [09:00-16:59]		  09:04  		 1
02304 		  013		  09 7 [09:00-16:59]		  09:04  		 1
05108 		  005		  09 7 [09:00-16:59]		  09:05  		 1
50541 		  003		  09 7 [09:00-16:59]		  09:06  		 1
02566 		  003		  09 7 [09:00-16:59]		  09:08  		 1
02199 		  002		  09 7 [09:00-16:59]		  09:10  		 1
02580 		  001		  09 7 [09:00-16:59]		  09:10  		 1
02200 		  036		  09 7 [09:00-16:59]		  09:10  		 1
05294 		  024		  09 7 [09:00-16:59]		  09:12  		 1
02446 		  003		  09 7 [09:00-16:59]		  09:15  		 1
02414 		  035		  09 7 [09:00-16:59]		  09:17  		 1
02536 		  034		  09 7 [09:00-16:59]		  09:18  		 1
02276 		  011		  09 7 [09:00-16:59]		  09:20  		 1
02366 		  032		  09 7 [09:00-16:59]		  09:23  		 1
02204 		  013		  09 7 [09:00-16:59]		  09:27  		 1
02561 		  003		  09 7 [09:00-16:59]		  09:29  		 1
50549 		  001		  09 7 [09:00-16:59]		  09:30  		 1
02195 		  002		  09 7 [09:00-16:59]		  09:32  		 1
02095 		  003		  09 7 [09:00-16:59]		  09:32  		 1
00770 		  001		  09 7 [09:00-16:59]		  09:32  		 1
02247 		  003		  09 7 [09:00-16:59]		  09:33  		 1
00818 		  001		  09 7 [09:00-16:59]		  09:37  		 1
02194 		  003		  09 7 [09:00-16:59]		  09:37  		 1
02353 		  010		  09 7 [09:00-16:59]		  09:38  		 1
02567 		  003		  09 7 [09:00-16:59]		  09:38  		 1
02617 		  001		  09 7 [09:00-16:59]		  09:38  		 1
02159 		  001		  09 7 [09:00-16:59]		  09:41  		 1
02364 		  002		  09 7 [09:00-16:59]		  09:42  		 1
00821 		  002		  09 7 [09:00-16:59]		  09:42  		 1
02152 		  018		  09 7 [09:00-16:59]		  09:42  		 1
50566 		  002		  09 7 [09:00-16:59]		  09:44  		 1
02296 		  004		  09 7 [09:00-16:59]		  09:45  		 1
02352 		  003		  09 7 [09:00-16:59]		  09:46  		 1
02539 		  003		  09 7 [09:00-16:59]		  09:46  		 1
50554 		  001		  09 7 [09:00-16:59]		  09:47  		 1
02234 		  028		  09 7 [09:00-16:59]		  09:47  		 1
02544 		  002		  09 7 [09:00-16:59]		  09:47  		 1
02477 		  004		  09 7 [09:00-16:59]		  09:49  		 1
02140 		  002		  09 7 [09:00-16:59]		  09:49  		 1
01105 		  004		  09 7 [09:00-16:59]		  09:50  		 1
02368 		  013		  09 7 [09:00-16:59]		  09:51  		 1
02036 		  005		  09 7 [09:00-16:59]		  09:53  		 1
02592 		  039		  09 7 [09:00-16:59]		  09:54  		 1
02431 		  001		  09 7 [09:00-16:59]		  09:55  		 1
01356 		  009		  09 7 [09:00-16:59]		  09:55  		 1
50558 		  004		  09 7 [09:00-16:59]		  09:55  		 1
02322 		  001		  09 7 [09:00-16:59]		  09:59  		 1
02303 		  001		  09 7 [09:00-16:59]		  10:00  		 1
02332 		  002		  09 7 [09:00-16:59]		  10:01  		 1
00690 		  001		  09 7 [09:00-16:59]		  10:01  		 1
50562 		  002		  09 7 [09:00-16:59]		  10:01  		 1
02604 		  014		  09 7 [09:00-16:59]		  10:03  		 1
02396 		  030		  09 7 [09:00-16:59]		  10:03  		 1
02212 		  039		  09 7 [09:00-16:59]		  10:06  		 1
02372 		  036		  09 7 [09:00-16:59]		  10:09  		 1
02027 		  003		  09 7 [09:00-16:59]		  10:12  		 1
02455 		  001		  09 7 [09:00-16:59]		  10:13  		 1
05257 		  003		  09 7 [09:00-16:59]		  10:13  		 1
02028 		  003		  09 7 [09:00-16:59]		  10:16  		 1
02453 		  025		  09 7 [09:00-16:59]		  10:17  		 1
02560 		  005		  09 7 [09:00-16:59]		  10:18  		 1
02406 		  016		  09 7 [09:00-16:59]		  10:18  		 1
02427 		  005		  09 7 [09:00-16:59]		  10:18  		 1
02133 		  014		  09 7 [09:00-16:59]		  10:19  		 1
02274 		  001		  09 7 [09:00-16:59]		  10:20  		 1
05320 		  003		  09 7 [09:00-16:59]		  10:20  		 1
02598 		  005		  09 7 [09:00-16:59]		  10:21  		 1
02379 		  002		  09 7 [09:00-16:59]		  10:21  		 1
02256 		  001		  09 7 [09:00-16:59]		  10:22  		 1
02448 		  005		  09 7 [09:00-16:59]		  10:22  		 1
02157 		  001		  09 7 [09:00-16:59]		  10:23  		 1
02419 		  002		  09 7 [09:00-16:59]		  10:23  		 1
02450 		  003		  09 7 [09:00-16:59]		  10:23  		 1
02383 		  001		  09 7 [09:00-16:59]		  10:23  		 1
00719 		  013		  09 7 [09:00-16:59]		  10:25  		 1
02282 		  003		  09 7 [09:00-16:59]		  10:26  		 1
02401 		  001		  09 7 [09:00-16:59]		  10:27  		 1
02554 		  046		  09 7 [09:00-16:59]		  10:28  		 1
02069 		  003		  09 7 [09:00-16:59]		  10:31  		 1
02137 		  002		  09 7 [09:00-16:59]		  10:31  		 1
02579 		  031		  09 7 [09:00-16:59]		  10:31  		 1
02593 		  002		  09 7 [09:00-16:59]		  10:32  		 1
02433 		  049		  09 7 [09:00-16:59]		  10:32  		 1
02356 		  040		  09 7 [09:00-16:59]		  10:33  		 1
02476 		  006		  09 7 [09:00-16:59]		  10:36  		 1
02548 		  001		  09 7 [09:00-16:59]		  10:36  		 1
02365 		  002		  09 7 [09:00-16:59]		  10:38  		 1
00754 		  027		  09 7 [09:00-16:59]		  10:40  		 1
02357 		  003		  09 7 [09:00-16:59]		  10:42  		 1
02452 		  002		  09 7 [09:00-16:59]		  10:43  		 1
02142 		  005		  09 7 [09:00-16:59]		  10:43  		 1
02393 		  005		  09 7 [09:00-16:59]		  10:44  		 1
02263 		  003		  09 7 [09:00-16:59]		  10:44  		 1
02206 		  001		  09 7 [09:00-16:59]		  10:46  		 1
00763 		  003		  09 7 [09:00-16:59]		  10:48  		 1
02186 		  002		  09 7 [09:00-16:59]		  10:49  		 1
02460 		  001		  09 7 [09:00-16:59]		  10:49  		 1
02386 		  001		  09 7 [09:00-16:59]		  10:51  		 1
05286 		  001		  09 7 [09:00-16:59]		  10:53  		 1
02563 		  003		  09 7 [09:00-16:59]		  10:55  		 1
02387 		  001		  09 7 [09:00-16:59]		  10:55  		 1
02404 		  002		  09 7 [09:00-16:59]		  10:56  		 1
02375 		  001		  09 7 [09:00-16:59]		  10:56  		 1
02444 		  046		  09 7 [09:00-16:59]		  11:00  		 2
02568 		  001		  09 7 [09:00-16:59]		  11:00  		 2
02230 		  040		  09 7 [09:00-16:59]		  11:00  		 2
02010 		  041		  09 7 [09:00-16:59]		  11:01  		 2
50562 		  002		  09 7 [09:00-16:59]		  11:02  		 2
02273 		  002		  09 7 [09:00-16:59]		  11:02  		 2
02406 		  016		  09 7 [09:00-16:59]		  11:03  		 2
00688 		  002		  09 7 [09:00-16:59]		  11:03  		 2
02416 		  005		  09 7 [09:00-16:59]		  11:04  		 2
00819 		  032		  09 7 [09:00-16:59]		  11:06  		 2
02399 		  002		  09 7 [09:00-16:59]		  11:06  		 2
02597 		  001		  09 7 [09:00-16:59]		  11:07  		 2
02566 		  003		  09 7 [09:00-16:59]		  11:09  		 2
02452 		  002		  09 7 [09:00-16:59]		  11:09  		 2
01096 		  002		  09 7 [09:00-16:59]		  11:09  		 2
02513 		  001		  09 7 [09:00-16:59]		  11:09  		 2
02421 		  003		  09 7 [09:00-16:59]		  11:09  		 2
02242 		  002		  09 7 [09:00-16:59]		  11:10  		 2
02114 		  044		  09 7 [09:00-16:59]		  11:10  		 2
02044 		  009		  09 7 [09:00-16:59]		  11:11  		 2
02274 		  001		  09 7 [09:00-16:59]		  11:12  		 2
50558 		  004		  09 7 [09:00-16:59]		  11:12  		 2
02261 		  006		  09 7 [09:00-16:59]		  11:13  		 2
41146 		  005		  09 7 [09:00-16:59]		  11:13  		 2
02373 		  005		  09 7 [09:00-16:59]		  11:13  		 2
02362 		  001		  09 7 [09:00-16:59]		  11:14  		 2
02617 		  001		  09 7 [09:00-16:59]		  11:15  		 2
02439 		  001		  09 7 [09:00-16:59]		  11:15  		 2
02535 		  002		  09 7 [09:00-16:59]		  11:15  		 2
02461 		  018		  09 7 [09:00-16:59]		  11:16  		 2
02046 		  002		  09 7 [09:00-16:59]		  11:16  		 2
02095 		  003		  09 7 [09:00-16:59]		  11:17  		 2
02387 		  001		  09 7 [09:00-16:59]		  11:17  		 2
02328 		  014		  09 7 [09:00-16:59]		  11:20  		 2
02251 		  003		  09 7 [09:00-16:59]		  11:20  		 2
02396 		  030		  09 7 [09:00-16:59]		  11:21  		 2
02072 		  012		  09 7 [09:00-16:59]		  11:21  		 2
02258 		  012		  09 7 [09:00-16:59]		  11:21  		 2
02589 		  002		  09 7 [09:00-16:59]		  11:21  		 2
02431 		  001		  09 7 [09:00-16:59]		  11:23  		 2
02296 		  004		  09 7 [09:00-16:59]		  11:24  		 2
02365 		  002		  09 7 [09:00-16:59]		  11:24  		 2
02590 		  002		  09 7 [09:00-16:59]		  11:24  		 2
02212 		  039		  09 7 [09:00-16:59]		  11:25  		 2
01091 		  041		  09 7 [09:00-16:59]		  11:25  		 2
02226 		  001		  09 7 [09:00-16:59]		  11:27  		 2
02598 		  005		  09 7 [09:00-16:59]		  11:28  		 2
02580 		  001		  09 7 [09:00-16:59]		  11:28  		 2
02304 		  013		  09 7 [09:00-16:59]		  11:28  		 2
02317 		  002		  09 7 [09:00-16:59]		  11:29  		 2
02190 		  004		  09 7 [09:00-16:59]		  11:30  		 2
02364 		  002		  09 7 [09:00-16:59]		  11:32  		 2
02140 		  002		  09 7 [09:00-16:59]		  11:32  		 2
02398 		  001		  09 7 [09:00-16:59]		  11:32  		 2
05406 		  001		  09 7 [09:00-16:59]		  11:32  		 2
02483 		  001		  09 7 [09:00-16:59]		  11:33  		 2
05320 		  003		  09 7 [09:00-16:59]		  11:34  		 2
02377 		  003		  09 7 [09:00-16:59]		  11:34  		 2
50549 		  001		  09 7 [09:00-16:59]		  11:35  		 2
02204 		  013		  09 7 [09:00-16:59]		  11:35  		 2
02374 		  024		  09 7 [09:00-16:59]		  11:37  		 2
02300 		  003		  09 7 [09:00-16:59]		  11:37  		 2
02386 		  001		  09 7 [09:00-16:59]		  11:38  		 2
02195 		  002		  09 7 [09:00-16:59]		  11:38  		 2
02172 		  001		  09 7 [09:00-16:59]		  11:38  		 2
02158 		  013		  09 7 [09:00-16:59]		  11:39  		 2
02536 		  034		  09 7 [09:00-16:59]		  11:42  		 2
02427 		  005		  09 7 [09:00-16:59]		  11:42  		 2
02318 		  005		  09 7 [09:00-16:59]		  11:42  		 2
02488 		  018		  09 7 [09:00-16:59]		  11:43  		 2
05066 		  001		  09 7 [09:00-16:59]		  11:44  		 2
01098 		  003		  09 7 [09:00-16:59]		  11:44  		 2
02359 		  040		  09 7 [09:00-16:59]		  11:45  		 2
02263 		  003		  09 7 [09:00-16:59]		  11:46  		 2
02548 		  001		  09 7 [09:00-16:59]		  11:47  		 2
02573 		  003		  09 7 [09:00-16:59]		  11:47  		 2
02394 		  003		  09 7 [09:00-16:59]		  11:47  		 2
00770 		  001		  09 7 [09:00-16:59]		  11:48  		 2
02481 		  012		  09 7 [09:00-16:59]		  11:48  		 2
02177 		  003		  09 7 [09:00-16:59]		  11:49  		 2
02622 		  004		  09 7 [09:00-16:59]		  11:49  		 2
02232 		  002		  09 7 [09:00-16:59]		  11:49  		 2
02563 		  003		  09 7 [09:00-16:59]		  11:51  		 2
02449 		  001		  09 7 [09:00-16:59]		  11:51  		 2
02093 		  026		  09 7 [09:00-16:59]		  11:52  		 2
02027 		  003		  09 7 [09:00-16:59]		  11:54  		 2
02545 		  002		  09 7 [09:00-16:59]		  11:54  		 2
02174 		  040		  09 7 [09:00-16:59]		  11:54  		 2
50554 		  001		  09 7 [09:00-16:59]		  11:56  		 2
02199 		  002		  09 7 [09:00-16:59]		  11:56  		 2
02050 		  004		  09 7 [09:00-16:59]		  11:57  		 2
02474 		  026		  09 7 [09:00-16:59]		  11:57  		 2
02320 		  006		  09 7 [09:00-16:59]		  12:01  		 2
00700 		  001		  09 7 [09:00-16:59]		  12:01  		 2
02104 		  006		  09 7 [09:00-16:59]		  12:02  		 2
02401 		  001		  09 7 [09:00-16:59]		  12:03  		 2
02375 		  001		  09 7 [09:00-16:59]		  12:03  		 2
02074 		  001		  09 7 [09:00-16:59]		  12:03  		 2
02188 		  005		  09 7 [09:00-16:59]		  12:04  		 2
02451 		  003		  09 7 [09:00-16:59]		  12:06  		 2
02293 		  002		  09 7 [09:00-16:59]		  12:06  		 2
02446 		  003		  09 7 [09:00-16:59]		  12:07  		 2
02208 		  003		  09 7 [09:00-16:59]		  12:09  		 2
00686 		  003		  09 7 [09:00-16:59]		  12:09  		 2
02303 		  001		  09 7 [09:00-16:59]		  12:10  		 2
02070 		  001		  09 7 [09:00-16:59]		  12:10  		 2
02337 		  002		  09 7 [09:00-16:59]		  12:10  		 2
02593 		  002		  09 7 [09:00-16:59]		  12:11  		 2
02372 		  036		  09 7 [09:00-16:59]		  12:12  		 2
02615 		  030		  09 7 [09:00-16:59]		  12:12  		 2
02547 		  003		  09 7 [09:00-16:59]		  12:12  		 2
02229 		  002		  09 7 [09:00-16:59]		  12:13  		 2
02142 		  005		  09 7 [09:00-16:59]		  12:14  		 2
01308 		  003		  09 7 [09:00-16:59]		  12:14  		 2
02459 		  002		  09 7 [09:00-16:59]		  12:14  		 2
02175 		  001		  09 7 [09:00-16:59]		  12:14  		 2
02453 		  025		  09 7 [09:00-16:59]		  12:15  		 2
50565 		  043		  09 7 [09:00-16:59]		  12:16  		 2
02477 		  004		  09 7 [09:00-16:59]		  12:17  		 2
50548 		  011		  09 7 [09:00-16:59]		  12:18  		 2
50541 		  003		  09 7 [09:00-16:59]		  12:19  		 2
00699 		  002		  09 7 [09:00-16:59]		  12:20  		 2
02340 		  002		  09 7 [09:00-16:59]		  12:20  		 2
02127 		  042		  09 7 [09:00-16:59]		  12:20  		 2
02201 		  002		  09 7 [09:00-16:59]		  12:22  		 2
02480 		  001		  09 7 [09:00-16:59]		  12:23  		 2
02206 		  001		  09 7 [09:00-16:59]		  12:24  		 2
02319 		  001		  09 7 [09:00-16:59]		  12:24  		 2
02612 		  015		  09 7 [09:00-16:59]		  12:24  		 2
02510 		  004		  09 7 [09:00-16:59]		  12:25  		 2
02133 		  014		  09 7 [09:00-16:59]		  12:27  		 2
02455 		  001		  09 7 [09:00-16:59]		  12:28  		 2
02323 		  002		  09 7 [09:00-16:59]		  12:29  		 2
02384 		  003		  09 7 [09:00-16:59]		  12:29  		 2
02221 		  003		  09 7 [09:00-16:59]		  12:32  		 2
02496 		  001		  09 7 [09:00-16:59]		  12:32  		 2
02618 		  002		  09 7 [09:00-16:59]		  12:33  		 2
02440 		  003		  09 7 [09:00-16:59]		  12:34  		 2
02102 		  006		  09 7 [09:00-16:59]		  12:34  		 2
00771 		  003		  09 7 [09:00-16:59]		  12:34  		 2
02069 		  003		  09 7 [09:00-16:59]		  12:35  		 2
02539 		  003		  09 7 [09:00-16:59]		  12:35  		 2
02064 		  001		  09 7 [09:00-16:59]		  12:35  		 2
02467 		  001		  09 7 [09:00-16:59]		  12:35  		 2
50571 		  002		  09 7 [09:00-16:59]		  12:36  		 2
02611 		  002		  09 7 [09:00-16:59]		  12:36  		 2
02205 		  050		  09 7 [09:00-16:59]		  12:38  		 2
00690 		  001		  09 7 [09:00-16:59]		  12:39  		 2
02520 		  002		  09 7 [09:00-16:59]		  12:39  		 2
02081 		  001		  09 7 [09:00-16:59]		  12:40  		 2
02495 		  003		  09 7 [09:00-16:59]		  12:40  		 2
02239 		  001		  09 7 [09:00-16:59]		  12:40  		 2
02454 		  003		  09 7 [09:00-16:59]		  12:43  		 2
02428 		  004		  09 7 [09:00-16:59]		  12:43  		 2
05067 		  018		  09 7 [09:00-16:59]		  12:46  		 2
02210 		  004		  09 7 [09:00-16:59]		  12:46  		 2
02179 		  002		  09 7 [09:00-16:59]		  12:47  		 2
00763 		  003		  09 7 [09:00-16:59]		  12:50  		 2
50542 		  003		  09 7 [09:00-16:59]		  12:51  		 2
02349 		  033		  09 7 [09:00-16:59]		  12:52  		 2
02297 		  005		  09 7 [09:00-16:59]		  12:53  		 2
02462 		  015		  09 7 [09:00-16:59]		  12:55  		 2
05109 		  035		  09 7 [09:00-16:59]		  12:55  		 2
05429 		  042		  09 7 [09:00-16:59]		  12:56  		 2
