ONLINE REQUESTS:           45
TIME HORIZON:                  09 8 [09:00-16:59]
TIME BUCKETS IN HORIZON:   4   09 2 [09:00-10:59]     11 2 [11:00-12:59]     13 2 [13:00-14:59]     15 2 [15:00-16:59]
TIME BUCKETS FOR REQUESTS: 2   09 2 [09:00-10:59]     11 2 [11:00-12:59]
----------------------------------------------------------------------------------------------------------------------

NODE 		  VOL 		  TIME WINDOW 				  TIME REQUEST   TIME BUCKET
02256 		  002		  09 7 [09:00-16:59]		  09:04  		 1
02616 		  014		  09 7 [09:00-16:59]		  09:05  		 1
02234 		  005		  09 7 [09:00-16:59]		  09:10  		 1
02298 		  001		  09 7 [09:00-16:59]		  09:16  		 1
01098 		  010		  09 7 [09:00-16:59]		  09:29  		 1
02615 		  002		  09 7 [09:00-16:59]		  09:31  		 1
02382 		  048		  09 7 [09:00-16:59]		  09:39  		 1
02607 		  003		  09 7 [09:00-16:59]		  09:45  		 1
02032 		  004		  09 7 [09:00-16:59]		  09:45  		 1
00816 		  003		  09 7 [09:00-16:59]		  09:50  		 1
02182 		  003		  09 7 [09:00-16:59]		  10:06  		 1
50555 		  001		  09 7 [09:00-16:59]		  10:08  		 1
02276 		  004		  09 7 [09:00-16:59]		  10:09  		 1
02477 		  002		  09 7 [09:00-16:59]		  10:11  		 1
50560 		  002		  09 7 [09:00-16:59]		  10:17  		 1
02195 		  002		  09 7 [09:00-16:59]		  10:39  		 1
02331 		  002		  09 7 [09:00-16:59]		  10:49  		 1
02047 		  014		  09 7 [09:00-16:59]		  10:50  		 1
02238 		  006		  09 7 [09:00-16:59]		  11:01  		 2
02261 		  002		  09 7 [09:00-16:59]		  11:01  		 2
02164 		  003		  09 7 [09:00-16:59]		  11:02  		 2
02182 		  003		  09 7 [09:00-16:59]		  11:06  		 2
01098 		  010		  09 7 [09:00-16:59]		  11:10  		 2
50580 		  004		  09 7 [09:00-16:59]		  11:31  		 2
02615 		  002		  09 7 [09:00-16:59]		  11:36  		 2
02227 		  010		  09 7 [09:00-16:59]		  11:46  		 2
02387 		  049		  09 7 [09:00-16:59]		  11:48  		 2
50560 		  002		  09 7 [09:00-16:59]		  12:03  		 2
02435 		  011		  09 7 [09:00-16:59]		  12:03  		 2
02416 		  001		  09 7 [09:00-16:59]		  12:07  		 2
02552 		  032		  09 7 [09:00-16:59]		  12:09  		 2
02439 		  027		  09 7 [09:00-16:59]		  12:11  		 2
02199 		  001		  09 7 [09:00-16:59]		  12:24  		 2
02273 		  003		  09 7 [09:00-16:59]		  12:35  		 2
02616 		  014		  09 7 [09:00-16:59]		  12:39  		 2
01357 		  001		  09 7 [09:00-16:59]		  12:40  		 2
02462 		  002		  09 7 [09:00-16:59]		  12:42  		 2
02276 		  004		  09 7 [09:00-16:59]		  12:43  		 2
02331 		  002		  09 7 [09:00-16:59]		  12:44  		 2
02355 		  012		  09 7 [09:00-16:59]		  12:44  		 2
02244 		  001		  09 7 [09:00-16:59]		  12:44  		 2
00686 		  003		  09 7 [09:00-16:59]		  12:53  		 2
02364 		  006		  09 7 [09:00-16:59]		  12:53  		 2
02318 		  001		  09 7 [09:00-16:59]		  12:55  		 2
00763 		  003		  09 7 [09:00-16:59]		  12:59  		 2
