ONLINE REQUESTS:           57
TIME HORIZON:                  09 8 [09:00-16:59]
TIME BUCKETS IN HORIZON:   4   09 2 [09:00-10:59]     11 2 [11:00-12:59]     13 2 [13:00-14:59]     15 2 [15:00-16:59]
TIME BUCKETS FOR REQUESTS: 2   09 2 [09:00-10:59]     11 2 [11:00-12:59]
----------------------------------------------------------------------------------------------------------------------

NODE 		  VOL 		  TIME WINDOW 				  TIME REQUEST   TIME BUCKET
02238 		  006		  09 7 [09:00-16:59]		  09:00  		 1
00816 		  003		  09 7 [09:00-16:59]		  09:05  		 1
02256 		  002		  09 7 [09:00-16:59]		  09:06  		 1
02195 		  002		  09 7 [09:00-16:59]		  09:07  		 1
02261 		  002		  09 7 [09:00-16:59]		  09:08  		 1
02543 		  003		  09 7 [09:00-16:59]		  09:09  		 1
02276 		  004		  09 7 [09:00-16:59]		  09:18  		 1
02364 		  006		  09 7 [09:00-16:59]		  09:26  		 1
02234 		  005		  09 7 [09:00-16:59]		  09:27  		 1
01093 		  001		  09 7 [09:00-16:59]		  09:29  		 1
02429 		  002		  09 7 [09:00-16:59]		  09:29  		 1
02382 		  048		  09 7 [09:00-16:59]		  09:30  		 1
50555 		  001		  09 7 [09:00-16:59]		  09:58  		 1
02616 		  014		  09 7 [09:00-16:59]		  09:59  		 1
02298 		  001		  09 7 [09:00-16:59]		  10:01  		 1
01098 		  010		  09 7 [09:00-16:59]		  10:01  		 1
02182 		  003		  09 7 [09:00-16:59]		  10:06  		 1
02615 		  002		  09 7 [09:00-16:59]		  10:06  		 1
02477 		  002		  09 7 [09:00-16:59]		  10:15  		 1
02354 		  001		  09 7 [09:00-16:59]		  10:18  		 1
02047 		  014		  09 7 [09:00-16:59]		  10:42  		 1
02607 		  003		  09 7 [09:00-16:59]		  10:50  		 1
02186 		  002		  09 7 [09:00-16:59]		  10:53  		 1
02298 		  001		  09 7 [09:00-16:59]		  11:00  		 2
02416 		  001		  09 7 [09:00-16:59]		  11:01  		 2
02164 		  003		  09 7 [09:00-16:59]		  11:01  		 2
00763 		  003		  09 7 [09:00-16:59]		  11:11  		 2
02199 		  001		  09 7 [09:00-16:59]		  11:14  		 2
02553 		  003		  09 7 [09:00-16:59]		  11:18  		 2
50560 		  002		  09 7 [09:00-16:59]		  11:21  		 2
02615 		  002		  09 7 [09:00-16:59]		  11:24  		 2
00686 		  003		  09 7 [09:00-16:59]		  11:29  		 2
02364 		  006		  09 7 [09:00-16:59]		  11:30  		 2
02605 		  011		  09 7 [09:00-16:59]		  11:30  		 2
02462 		  002		  09 7 [09:00-16:59]		  11:34  		 2
02276 		  004		  09 7 [09:00-16:59]		  11:38  		 2
02474 		  003		  09 7 [09:00-16:59]		  11:41  		 2
02261 		  002		  09 7 [09:00-16:59]		  11:44  		 2
02543 		  003		  09 7 [09:00-16:59]		  11:46  		 2
02182 		  003		  09 7 [09:00-16:59]		  11:51  		 2
02227 		  010		  09 7 [09:00-16:59]		  12:01  		 2
02429 		  002		  09 7 [09:00-16:59]		  12:02  		 2
02435 		  011		  09 7 [09:00-16:59]		  12:04  		 2
02195 		  002		  09 7 [09:00-16:59]		  12:18  		 2
01357 		  001		  09 7 [09:00-16:59]		  12:18  		 2
02387 		  049		  09 7 [09:00-16:59]		  12:22  		 2
02537 		  020		  09 7 [09:00-16:59]		  12:22  		 2
02136 		  001		  09 7 [09:00-16:59]		  12:23  		 2
50580 		  004		  09 7 [09:00-16:59]		  12:23  		 2
02439 		  027		  09 7 [09:00-16:59]		  12:24  		 2
01098 		  010		  09 7 [09:00-16:59]		  12:36  		 2
02318 		  001		  09 7 [09:00-16:59]		  12:36  		 2
02607 		  003		  09 7 [09:00-16:59]		  12:37  		 2
02272 		  001		  09 7 [09:00-16:59]		  12:43  		 2
02552 		  032		  09 7 [09:00-16:59]		  12:43  		 2
02354 		  001		  09 7 [09:00-16:59]		  12:49  		 2
02618 		  033		  09 7 [09:00-16:59]		  12:59  		 2
