ONLINE REQUESTS:           60
TIME HORIZON:                  09 8 [09:00-16:59]
TIME BUCKETS IN HORIZON:   4   09 2 [09:00-10:59]     11 2 [11:00-12:59]     13 2 [13:00-14:59]     15 2 [15:00-16:59]
TIME BUCKETS FOR REQUESTS: 2   09 2 [09:00-10:59]     11 2 [11:00-12:59]
----------------------------------------------------------------------------------------------------------------------

NODE 		  VOL 		  TIME WINDOW 				  TIME REQUEST   TIME BUCKET
02298 		  001		  09 7 [09:00-16:59]		  09:03  		 1
02276 		  004		  09 7 [09:00-16:59]		  09:13  		 1
02543 		  003		  09 7 [09:00-16:59]		  09:14  		 1
02234 		  005		  09 7 [09:00-16:59]		  09:17  		 1
01093 		  001		  09 7 [09:00-16:59]		  09:25  		 1
02331 		  002		  09 7 [09:00-16:59]		  09:37  		 1
02047 		  014		  09 7 [09:00-16:59]		  09:41  		 1
02182 		  003		  09 7 [09:00-16:59]		  09:44  		 1
02615 		  002		  09 7 [09:00-16:59]		  09:46  		 1
02195 		  002		  09 7 [09:00-16:59]		  10:04  		 1
02261 		  002		  09 7 [09:00-16:59]		  10:14  		 1
02294 		  002		  09 7 [09:00-16:59]		  10:16  		 1
02227 		  010		  09 7 [09:00-16:59]		  10:17  		 1
00816 		  003		  09 7 [09:00-16:59]		  10:18  		 1
50560 		  002		  09 7 [09:00-16:59]		  10:20  		 1
02238 		  006		  09 7 [09:00-16:59]		  10:22  		 1
02439 		  027		  09 7 [09:00-16:59]		  10:22  		 1
01098 		  010		  09 7 [09:00-16:59]		  10:23  		 1
02382 		  048		  09 7 [09:00-16:59]		  10:28  		 1
02462 		  002		  09 7 [09:00-16:59]		  10:33  		 1
02560 		  001		  09 7 [09:00-16:59]		  10:42  		 1
02467 		  050		  09 7 [09:00-16:59]		  10:45  		 1
02364 		  006		  09 7 [09:00-16:59]		  10:50  		 1
50555 		  001		  09 7 [09:00-16:59]		  10:56  		 1
02615 		  002		  09 7 [09:00-16:59]		  11:01  		 2
02517 		  001		  09 7 [09:00-16:59]		  11:01  		 2
02364 		  006		  09 7 [09:00-16:59]		  11:05  		 2
02416 		  001		  09 7 [09:00-16:59]		  11:05  		 2
01357 		  001		  09 7 [09:00-16:59]		  11:07  		 2
50560 		  002		  09 7 [09:00-16:59]		  11:08  		 2
02605 		  011		  09 7 [09:00-16:59]		  11:09  		 2
02298 		  001		  09 7 [09:00-16:59]		  11:14  		 2
02234 		  005		  09 7 [09:00-16:59]		  11:16  		 2
02276 		  004		  09 7 [09:00-16:59]		  11:17  		 2
02227 		  010		  09 7 [09:00-16:59]		  11:18  		 2
02439 		  027		  09 7 [09:00-16:59]		  11:20  		 2
02616 		  014		  09 7 [09:00-16:59]		  11:20  		 2
02355 		  012		  09 7 [09:00-16:59]		  11:21  		 2
02354 		  001		  09 7 [09:00-16:59]		  11:25  		 2
02261 		  002		  09 7 [09:00-16:59]		  11:26  		 2
02618 		  033		  09 7 [09:00-16:59]		  11:28  		 2
02331 		  002		  09 7 [09:00-16:59]		  11:30  		 2
01098 		  010		  09 7 [09:00-16:59]		  11:34  		 2
02285 		  003		  09 7 [09:00-16:59]		  11:34  		 2
02543 		  003		  09 7 [09:00-16:59]		  11:43  		 2
02195 		  002		  09 7 [09:00-16:59]		  11:43  		 2
02462 		  002		  09 7 [09:00-16:59]		  11:44  		 2
02164 		  003		  09 7 [09:00-16:59]		  11:45  		 2
02560 		  001		  09 7 [09:00-16:59]		  11:50  		 2
02272 		  001		  09 7 [09:00-16:59]		  11:54  		 2
02387 		  049		  09 7 [09:00-16:59]		  11:54  		 2
02553 		  003		  09 7 [09:00-16:59]		  12:05  		 2
00763 		  003		  09 7 [09:00-16:59]		  12:07  		 2
02399 		  044		  09 7 [09:00-16:59]		  12:10  		 2
50580 		  004		  09 7 [09:00-16:59]		  12:35  		 2
02182 		  003		  09 7 [09:00-16:59]		  12:40  		 2
02429 		  002		  09 7 [09:00-16:59]		  12:46  		 2
02136 		  001		  09 7 [09:00-16:59]		  12:49  		 2
02199 		  001		  09 7 [09:00-16:59]		  12:49  		 2
02238 		  006		  09 7 [09:00-16:59]		  12:52  		 2
