ONLINE REQUESTS:           60
TIME HORIZON:                  09 8 [09:00-16:59]
TIME BUCKETS IN HORIZON:   4   09 2 [09:00-10:59]     11 2 [11:00-12:59]     13 2 [13:00-14:59]     15 2 [15:00-16:59]
TIME BUCKETS FOR REQUESTS: 2   09 2 [09:00-10:59]     11 2 [11:00-12:59]
----------------------------------------------------------------------------------------------------------------------

NODE 		  VOL 		  TIME WINDOW 				  TIME REQUEST   TIME BUCKET
02616 		  014		  09 7 [09:00-16:59]		  09:02  		 1
02462 		  002		  09 7 [09:00-16:59]		  09:05  		 1
02382 		  048		  09 7 [09:00-16:59]		  09:08  		 1
02354 		  001		  09 7 [09:00-16:59]		  09:10  		 1
02276 		  004		  09 7 [09:00-16:59]		  09:17  		 1
02477 		  002		  09 7 [09:00-16:59]		  09:29  		 1
02439 		  027		  09 7 [09:00-16:59]		  09:39  		 1
01093 		  001		  09 7 [09:00-16:59]		  09:42  		 1
02186 		  002		  09 7 [09:00-16:59]		  09:44  		 1
02227 		  010		  09 7 [09:00-16:59]		  09:46  		 1
00816 		  003		  09 7 [09:00-16:59]		  09:49  		 1
02238 		  006		  09 7 [09:00-16:59]		  09:50  		 1
02195 		  002		  09 7 [09:00-16:59]		  09:55  		 1
02429 		  002		  09 7 [09:00-16:59]		  09:56  		 1
02543 		  003		  09 7 [09:00-16:59]		  09:56  		 1
02298 		  001		  09 7 [09:00-16:59]		  09:59  		 1
02331 		  002		  09 7 [09:00-16:59]		  10:06  		 1
02467 		  050		  09 7 [09:00-16:59]		  10:06  		 1
02607 		  003		  09 7 [09:00-16:59]		  10:21  		 1
50560 		  002		  09 7 [09:00-16:59]		  10:29  		 1
02615 		  002		  09 7 [09:00-16:59]		  10:30  		 1
02256 		  002		  09 7 [09:00-16:59]		  10:48  		 1
01098 		  010		  09 7 [09:00-16:59]		  10:53  		 1
50555 		  001		  09 7 [09:00-16:59]		  10:57  		 1
02517 		  001		  09 7 [09:00-16:59]		  11:04  		 2
02261 		  002		  09 7 [09:00-16:59]		  11:12  		 2
02195 		  002		  09 7 [09:00-16:59]		  11:15  		 2
02273 		  003		  09 7 [09:00-16:59]		  11:21  		 2
02272 		  001		  09 7 [09:00-16:59]		  11:25  		 2
02355 		  012		  09 7 [09:00-16:59]		  11:35  		 2
02227 		  010		  09 7 [09:00-16:59]		  11:37  		 2
02553 		  003		  09 7 [09:00-16:59]		  11:37  		 2
02429 		  002		  09 7 [09:00-16:59]		  11:42  		 2
02298 		  001		  09 7 [09:00-16:59]		  11:43  		 2
02234 		  005		  09 7 [09:00-16:59]		  11:51  		 2
02364 		  006		  09 7 [09:00-16:59]		  11:52  		 2
02435 		  011		  09 7 [09:00-16:59]		  11:53  		 2
02182 		  003		  09 7 [09:00-16:59]		  11:53  		 2
02319 		  003		  09 7 [09:00-16:59]		  11:57  		 2
02543 		  003		  09 7 [09:00-16:59]		  12:08  		 2
00763 		  003		  09 7 [09:00-16:59]		  12:11  		 2
50560 		  002		  09 7 [09:00-16:59]		  12:14  		 2
02439 		  027		  09 7 [09:00-16:59]		  12:17  		 2
02136 		  001		  09 7 [09:00-16:59]		  12:20  		 2
50580 		  004		  09 7 [09:00-16:59]		  12:20  		 2
02399 		  044		  09 7 [09:00-16:59]		  12:21  		 2
02462 		  002		  09 7 [09:00-16:59]		  12:23  		 2
02616 		  014		  09 7 [09:00-16:59]		  12:25  		 2
02244 		  001		  09 7 [09:00-16:59]		  12:27  		 2
02331 		  002		  09 7 [09:00-16:59]		  12:31  		 2
02164 		  003		  09 7 [09:00-16:59]		  12:32  		 2
02285 		  003		  09 7 [09:00-16:59]		  12:38  		 2
01357 		  001		  09 7 [09:00-16:59]		  12:40  		 2
02318 		  001		  09 7 [09:00-16:59]		  12:41  		 2
01098 		  010		  09 7 [09:00-16:59]		  12:44  		 2
02416 		  001		  09 7 [09:00-16:59]		  12:48  		 2
02615 		  002		  09 7 [09:00-16:59]		  12:51  		 2
02618 		  033		  09 7 [09:00-16:59]		  12:56  		 2
02199 		  001		  09 7 [09:00-16:59]		  12:57  		 2
02276 		  004		  09 7 [09:00-16:59]		  12:58  		 2
