ONLINE REQUESTS:           66
TIME HORIZON:                  09 8 [09:00-16:59]
TIME BUCKETS IN HORIZON:   4   09 2 [09:00-10:59]     11 2 [11:00-12:59]     13 2 [13:00-14:59]     15 2 [15:00-16:59]
TIME BUCKETS FOR REQUESTS: 2   09 2 [09:00-10:59]     11 2 [11:00-12:59]
----------------------------------------------------------------------------------------------------------------------

NODE 		  VOL 		  TIME WINDOW 				  TIME REQUEST   TIME BUCKET
02263 		  003		  09 7 [09:00-16:59]		  09:02  		 1
02281 		  005		  09 7 [09:00-16:59]		  09:08  		 1
02062 		  002		  09 7 [09:00-16:59]		  09:12  		 1
00771 		  003		  09 7 [09:00-16:59]		  09:14  		 1
02620 		  002		  09 7 [09:00-16:59]		  09:14  		 1
02537 		  006		  09 7 [09:00-16:59]		  09:15  		 1
00690 		  001		  09 7 [09:00-16:59]		  09:21  		 1
02237 		  001		  09 7 [09:00-16:59]		  09:22  		 1
02383 		  001		  09 7 [09:00-16:59]		  09:25  		 1
01356 		  009		  09 7 [09:00-16:59]		  09:34  		 1
02431 		  001		  09 7 [09:00-16:59]		  09:38  		 1
00823 		  019		  09 7 [09:00-16:59]		  09:39  		 1
02591 		  003		  09 7 [09:00-16:59]		  10:03  		 1
05257 		  003		  09 7 [09:00-16:59]		  10:08  		 1
02202 		  002		  09 7 [09:00-16:59]		  10:11  		 1
02474 		  026		  09 7 [09:00-16:59]		  10:12  		 1
02372 		  036		  09 7 [09:00-16:59]		  10:17  		 1
02040 		  002		  09 7 [09:00-16:59]		  10:17  		 1
00698 		  001		  09 7 [09:00-16:59]		  10:19  		 1
01096 		  002		  09 7 [09:00-16:59]		  10:22  		 1
02230 		  040		  09 7 [09:00-16:59]		  10:28  		 1
02342 		  004		  09 7 [09:00-16:59]		  10:31  		 1
50565 		  043		  09 7 [09:00-16:59]		  10:34  		 1
02252 		  024		  09 7 [09:00-16:59]		  10:41  		 1
02618 		  002		  09 7 [09:00-16:59]		  10:50  		 1
02102 		  006		  09 7 [09:00-16:59]		  10:51  		 1
02540 		  003		  09 7 [09:00-16:59]		  11:07  		 2
02489 		  029		  09 7 [09:00-16:59]		  11:08  		 2
02430 		  046		  09 7 [09:00-16:59]		  11:09  		 2
00769 		  024		  09 7 [09:00-16:59]		  11:14  		 2
02604 		  014		  09 7 [09:00-16:59]		  11:17  		 2
02409 		  001		  09 7 [09:00-16:59]		  11:20  		 2
02403 		  003		  09 7 [09:00-16:59]		  11:23  		 2
50552 		  021		  09 7 [09:00-16:59]		  11:24  		 2
02230 		  040		  09 7 [09:00-16:59]		  11:25  		 2
02327 		  013		  09 7 [09:00-16:59]		  11:35  		 2
05136 		  002		  09 7 [09:00-16:59]		  11:35  		 2
02347 		  001		  09 7 [09:00-16:59]		  11:37  		 2
02081 		  001		  09 7 [09:00-16:59]		  11:40  		 2
02012 		  002		  09 7 [09:00-16:59]		  11:44  		 2
00818 		  001		  09 7 [09:00-16:59]		  11:45  		 2
02580 		  001		  09 7 [09:00-16:59]		  11:51  		 2
01357 		  041		  09 7 [09:00-16:59]		  11:51  		 2
02036 		  005		  09 7 [09:00-16:59]		  11:54  		 2
02365 		  002		  09 7 [09:00-16:59]		  11:57  		 2
02243 		  003		  09 7 [09:00-16:59]		  12:00  		 2
02205 		  050		  09 7 [09:00-16:59]		  12:03  		 2
02566 		  003		  09 7 [09:00-16:59]		  12:06  		 2
02537 		  006		  09 7 [09:00-16:59]		  12:17  		 2
00694 		  003		  09 7 [09:00-16:59]		  12:17  		 2
02517 		  002		  09 7 [09:00-16:59]		  12:23  		 2
00821 		  002		  09 7 [09:00-16:59]		  12:23  		 2
50582 		  002		  09 7 [09:00-16:59]		  12:27  		 2
02622 		  004		  09 7 [09:00-16:59]		  12:29  		 2
50547 		  030		  09 7 [09:00-16:59]		  12:30  		 2
02340 		  002		  09 7 [09:00-16:59]		  12:32  		 2
02208 		  003		  09 7 [09:00-16:59]		  12:36  		 2
02251 		  003		  09 7 [09:00-16:59]		  12:42  		 2
02548 		  001		  09 7 [09:00-16:59]		  12:42  		 2
02298 		  003		  09 7 [09:00-16:59]		  12:43  		 2
02377 		  003		  09 7 [09:00-16:59]		  12:47  		 2
05294 		  024		  09 7 [09:00-16:59]		  12:47  		 2
02408 		  001		  09 7 [09:00-16:59]		  12:47  		 2
02142 		  005		  09 7 [09:00-16:59]		  12:48  		 2
02179 		  002		  09 7 [09:00-16:59]		  12:49  		 2
01089 		  004		  09 7 [09:00-16:59]		  12:57  		 2
