ONLINE REQUESTS:           51
TIME HORIZON:                  09 8 [09:00-16:59]
TIME BUCKETS IN HORIZON:   4   09 2 [09:00-10:59]     11 2 [11:00-12:59]     13 2 [13:00-14:59]     15 2 [15:00-16:59]
TIME BUCKETS FOR REQUESTS: 2   09 2 [09:00-10:59]     11 2 [11:00-12:59]
----------------------------------------------------------------------------------------------------------------------

NODE 		  VOL 		  TIME WINDOW 				  TIME REQUEST   TIME BUCKET
02383 		  001		  09 7 [09:00-16:59]		  09:04  		 1
02620 		  002		  09 7 [09:00-16:59]		  09:17  		 1
02040 		  002		  09 7 [09:00-16:59]		  09:18  		 1
00823 		  019		  09 7 [09:00-16:59]		  09:19  		 1
02591 		  003		  09 7 [09:00-16:59]		  09:27  		 1
02281 		  005		  09 7 [09:00-16:59]		  09:28  		 1
01356 		  009		  09 7 [09:00-16:59]		  09:37  		 1
02230 		  040		  09 7 [09:00-16:59]		  09:40  		 1
02032 		  039		  09 7 [09:00-16:59]		  09:41  		 1
02252 		  024		  09 7 [09:00-16:59]		  09:42  		 1
02102 		  006		  09 7 [09:00-16:59]		  09:51  		 1
00690 		  001		  09 7 [09:00-16:59]		  10:08  		 1
02372 		  036		  09 7 [09:00-16:59]		  10:18  		 1
02202 		  002		  09 7 [09:00-16:59]		  10:18  		 1
02431 		  001		  09 7 [09:00-16:59]		  10:18  		 1
02537 		  006		  09 7 [09:00-16:59]		  10:36  		 1
02298 		  003		  09 7 [09:00-16:59]		  10:40  		 1
02618 		  002		  09 7 [09:00-16:59]		  10:50  		 1
05257 		  003		  09 7 [09:00-16:59]		  10:54  		 1
02342 		  004		  09 7 [09:00-16:59]		  10:58  		 1
01357 		  041		  09 7 [09:00-16:59]		  11:01  		 2
02365 		  002		  09 7 [09:00-16:59]		  11:01  		 2
02403 		  003		  09 7 [09:00-16:59]		  11:10  		 2
02548 		  001		  09 7 [09:00-16:59]		  11:12  		 2
02327 		  013		  09 7 [09:00-16:59]		  11:17  		 2
05131 		  004		  09 7 [09:00-16:59]		  11:20  		 2
02540 		  003		  09 7 [09:00-16:59]		  11:22  		 2
05294 		  024		  09 7 [09:00-16:59]		  11:23  		 2
50552 		  021		  09 7 [09:00-16:59]		  11:23  		 2
02243 		  003		  09 7 [09:00-16:59]		  11:30  		 2
00821 		  002		  09 7 [09:00-16:59]		  11:31  		 2
02604 		  014		  09 7 [09:00-16:59]		  11:49  		 2
02208 		  003		  09 7 [09:00-16:59]		  11:50  		 2
02517 		  002		  09 7 [09:00-16:59]		  11:54  		 2
02298 		  003		  09 7 [09:00-16:59]		  11:55  		 2
02580 		  001		  09 7 [09:00-16:59]		  12:06  		 2
02012 		  002		  09 7 [09:00-16:59]		  12:07  		 2
02036 		  005		  09 7 [09:00-16:59]		  12:10  		 2
00769 		  024		  09 7 [09:00-16:59]		  12:11  		 2
02489 		  029		  09 7 [09:00-16:59]		  12:12  		 2
02566 		  003		  09 7 [09:00-16:59]		  12:16  		 2
02377 		  003		  09 7 [09:00-16:59]		  12:21  		 2
02179 		  002		  09 7 [09:00-16:59]		  12:27  		 2
02347 		  001		  09 7 [09:00-16:59]		  12:28  		 2
02205 		  050		  09 7 [09:00-16:59]		  12:31  		 2
02155 		  013		  09 7 [09:00-16:59]		  12:33  		 2
05130 		  002		  09 7 [09:00-16:59]		  12:42  		 2
02320 		  006		  09 7 [09:00-16:59]		  12:45  		 2
02419 		  002		  09 7 [09:00-16:59]		  12:46  		 2
01089 		  004		  09 7 [09:00-16:59]		  12:46  		 2
02391 		  001		  09 7 [09:00-16:59]		  12:56  		 2
