ONLINE REQUESTS:           144
TIME HORIZON:                  09 8 [09:00-16:59]
TIME BUCKETS IN HORIZON:   4   09 2 [09:00-10:59]     11 2 [11:00-12:59]     13 2 [13:00-14:59]     15 2 [15:00-16:59]
TIME BUCKETS FOR REQUESTS: 2   09 2 [09:00-10:59]     11 2 [11:00-12:59]
----------------------------------------------------------------------------------------------------------------------

NODE 		  VOL 		  TIME WINDOW 				  TIME REQUEST   TIME BUCKET
02228 		  003		  09 7 [09:00-16:59]		  09:01  		 1
50667 		  030		  09 7 [09:00-16:59]		  09:02  		 1
02350 		  016		  09 7 [09:00-16:59]		  09:04  		 1
02385 		  001		  09 7 [09:00-16:59]		  09:07  		 1
02474 		  026		  09 7 [09:00-16:59]		  09:09  		 1
02476 		  006		  09 7 [09:00-16:59]		  09:10  		 1
05429 		  042		  09 7 [09:00-16:59]		  09:10  		 1
05067 		  018		  09 7 [09:00-16:59]		  09:11  		 1
00688 		  002		  09 7 [09:00-16:59]		  09:11  		 1
02142 		  005		  09 7 [09:00-16:59]		  09:12  		 1
05320 		  003		  09 7 [09:00-16:59]		  09:12  		 1
00717 		  001		  09 7 [09:00-16:59]		  09:16  		 1
02232 		  002		  09 7 [09:00-16:59]		  09:20  		 1
02257 		  002		  09 7 [09:00-16:59]		  09:22  		 1
02117 		  006		  09 7 [09:00-16:59]		  09:23  		 1
02119 		  035		  09 7 [09:00-16:59]		  09:28  		 1
02012 		  002		  09 7 [09:00-16:59]		  09:30  		 1
05283 		  005		  09 7 [09:00-16:59]		  09:32  		 1
02040 		  002		  09 7 [09:00-16:59]		  09:33  		 1
02604 		  014		  09 7 [09:00-16:59]		  09:33  		 1
02317 		  002		  09 7 [09:00-16:59]		  09:34  		 1
02362 		  001		  09 7 [09:00-16:59]		  09:39  		 1
02431 		  001		  09 7 [09:00-16:59]		  09:41  		 1
02133 		  014		  09 7 [09:00-16:59]		  09:43  		 1
02544 		  002		  09 7 [09:00-16:59]		  09:46  		 1
02478 		  003		  09 7 [09:00-16:59]		  09:48  		 1
00763 		  003		  09 7 [09:00-16:59]		  09:52  		 1
02384 		  003		  09 7 [09:00-16:59]		  09:55  		 1
50548 		  011		  09 7 [09:00-16:59]		  09:57  		 1
02205 		  050		  09 7 [09:00-16:59]		  09:58  		 1
02373 		  005		  09 7 [09:00-16:59]		  10:00  		 1
05136 		  002		  09 7 [09:00-16:59]		  10:00  		 1
02535 		  002		  09 7 [09:00-16:59]		  10:01  		 1
02611 		  002		  09 7 [09:00-16:59]		  10:03  		 1
02612 		  015		  09 7 [09:00-16:59]		  10:04  		 1
02393 		  005		  09 7 [09:00-16:59]		  10:07  		 1
02093 		  026		  09 7 [09:00-16:59]		  10:13  		 1
50563 		  048		  09 7 [09:00-16:59]		  10:14  		 1
02115 		  032		  09 7 [09:00-16:59]		  10:15  		 1
02104 		  006		  09 7 [09:00-16:59]		  10:18  		 1
05257 		  003		  09 7 [09:00-16:59]		  10:18  		 1
02449 		  001		  09 7 [09:00-16:59]		  10:19  		 1
01098 		  003		  09 7 [09:00-16:59]		  10:26  		 1
02561 		  003		  09 7 [09:00-16:59]		  10:26  		 1
05108 		  005		  09 7 [09:00-16:59]		  10:27  		 1
00700 		  001		  09 7 [09:00-16:59]		  10:28  		 1
02491 		  001		  09 7 [09:00-16:59]		  10:33  		 1
02459 		  002		  09 7 [09:00-16:59]		  10:33  		 1
05066 		  001		  09 7 [09:00-16:59]		  10:35  		 1
02446 		  003		  09 7 [09:00-16:59]		  10:39  		 1
02152 		  018		  09 7 [09:00-16:59]		  10:41  		 1
02193 		  003		  09 7 [09:00-16:59]		  10:43  		 1
05294 		  024		  09 7 [09:00-16:59]		  10:44  		 1
02028 		  003		  09 7 [09:00-16:59]		  10:46  		 1
02594 		  031		  09 7 [09:00-16:59]		  10:48  		 1
41146 		  005		  09 7 [09:00-16:59]		  10:53  		 1
02389 		  003		  09 7 [09:00-16:59]		  10:54  		 1
02514 		  002		  09 7 [09:00-16:59]		  10:55  		 1
02384 		  003		  09 7 [09:00-16:59]		  11:01  		 2
02206 		  001		  09 7 [09:00-16:59]		  11:06  		 2
02488 		  018		  09 7 [09:00-16:59]		  11:07  		 2
02328 		  014		  09 7 [09:00-16:59]		  11:07  		 2
02230 		  040		  09 7 [09:00-16:59]		  11:07  		 2
02158 		  013		  09 7 [09:00-16:59]		  11:07  		 2
02582 		  003		  09 7 [09:00-16:59]		  11:08  		 2
02305 		  002		  09 7 [09:00-16:59]		  11:10  		 2
00770 		  001		  09 7 [09:00-16:59]		  11:11  		 2
02469 		  001		  09 7 [09:00-16:59]		  11:11  		 2
02175 		  001		  09 7 [09:00-16:59]		  11:13  		 2
50548 		  011		  09 7 [09:00-16:59]		  11:16  		 2
02459 		  002		  09 7 [09:00-16:59]		  11:17  		 2
02303 		  001		  09 7 [09:00-16:59]		  11:17  		 2
02199 		  002		  09 7 [09:00-16:59]		  11:18  		 2
02385 		  001		  09 7 [09:00-16:59]		  11:19  		 2
02456 		  001		  09 7 [09:00-16:59]		  11:19  		 2
02547 		  003		  09 7 [09:00-16:59]		  11:20  		 2
02140 		  002		  09 7 [09:00-16:59]		  11:20  		 2
02032 		  039		  09 7 [09:00-16:59]		  11:22  		 2
02083 		  004		  09 7 [09:00-16:59]		  11:22  		 2
02221 		  003		  09 7 [09:00-16:59]		  11:25  		 2
02403 		  003		  09 7 [09:00-16:59]		  11:27  		 2
02310 		  015		  09 7 [09:00-16:59]		  11:28  		 2
02261 		  006		  09 7 [09:00-16:59]		  11:29  		 2
02572 		  002		  09 7 [09:00-16:59]		  11:34  		 2
02406 		  016		  09 7 [09:00-16:59]		  11:34  		 2
50556 		  001		  09 7 [09:00-16:59]		  11:38  		 2
02368 		  013		  09 7 [09:00-16:59]		  11:39  		 2
02237 		  001		  09 7 [09:00-16:59]		  11:39  		 2
02302 		  006		  09 7 [09:00-16:59]		  11:41  		 2
02177 		  003		  09 7 [09:00-16:59]		  11:41  		 2
01089 		  004		  09 7 [09:00-16:59]		  11:43  		 2
50552 		  021		  09 7 [09:00-16:59]		  11:43  		 2
02047 		  002		  09 7 [09:00-16:59]		  11:44  		 2
02618 		  002		  09 7 [09:00-16:59]		  11:45  		 2
02064 		  001		  09 7 [09:00-16:59]		  11:45  		 2
02282 		  003		  09 7 [09:00-16:59]		  11:47  		 2
02525 		  017		  09 7 [09:00-16:59]		  11:48  		 2
02566 		  003		  09 7 [09:00-16:59]		  11:48  		 2
02561 		  003		  09 7 [09:00-16:59]		  11:51  		 2
02210 		  004		  09 7 [09:00-16:59]		  11:54  		 2
02440 		  003		  09 7 [09:00-16:59]		  11:54  		 2
02133 		  014		  09 7 [09:00-16:59]		  11:55  		 2
02258 		  012		  09 7 [09:00-16:59]		  11:56  		 2
02373 		  005		  09 7 [09:00-16:59]		  11:59  		 2
00754 		  027		  09 7 [09:00-16:59]		  12:00  		 2
50541 		  003		  09 7 [09:00-16:59]		  12:00  		 2
02448 		  005		  09 7 [09:00-16:59]		  12:00  		 2
00699 		  002		  09 7 [09:00-16:59]		  12:00  		 2
06032 		  003		  09 7 [09:00-16:59]		  12:01  		 2
02568 		  001		  09 7 [09:00-16:59]		  12:02  		 2
02319 		  001		  09 7 [09:00-16:59]		  12:04  		 2
02348 		  011		  09 7 [09:00-16:59]		  12:05  		 2
50563 		  048		  09 7 [09:00-16:59]		  12:06  		 2
05109 		  035		  09 7 [09:00-16:59]		  12:08  		 2
00744 		  002		  09 7 [09:00-16:59]		  12:13  		 2
02466 		  022		  09 7 [09:00-16:59]		  12:16  		 2
00718 		  002		  09 7 [09:00-16:59]		  12:18  		 2
02357 		  003		  09 7 [09:00-16:59]		  12:19  		 2
02327 		  013		  09 7 [09:00-16:59]		  12:20  		 2
50549 		  001		  09 7 [09:00-16:59]		  12:24  		 2
02453 		  025		  09 7 [09:00-16:59]		  12:26  		 2
02558 		  002		  09 7 [09:00-16:59]		  12:27  		 2
02321 		  003		  09 7 [09:00-16:59]		  12:29  		 2
02622 		  004		  09 7 [09:00-16:59]		  12:30  		 2
02200 		  036		  09 7 [09:00-16:59]		  12:31  		 2
02421 		  003		  09 7 [09:00-16:59]		  12:32  		 2
02262 		  001		  09 7 [09:00-16:59]		  12:34  		 2
05131 		  004		  09 7 [09:00-16:59]		  12:34  		 2
02436 		  001		  09 7 [09:00-16:59]		  12:37  		 2
02451 		  003		  09 7 [09:00-16:59]		  12:38  		 2
02138 		  015		  09 7 [09:00-16:59]		  12:40  		 2
02067 		  003		  09 7 [09:00-16:59]		  12:40  		 2
02193 		  003		  09 7 [09:00-16:59]		  12:41  		 2
02598 		  005		  09 7 [09:00-16:59]		  12:42  		 2
02409 		  001		  09 7 [09:00-16:59]		  12:43  		 2
02149 		  006		  09 7 [09:00-16:59]		  12:44  		 2
02155 		  013		  09 7 [09:00-16:59]		  12:45  		 2
02375 		  001		  09 7 [09:00-16:59]		  12:51  		 2
02437 		  008		  09 7 [09:00-16:59]		  12:53  		 2
02072 		  012		  09 7 [09:00-16:59]		  12:55  		 2
00824 		  002		  09 7 [09:00-16:59]		  12:56  		 2
02102 		  006		  09 7 [09:00-16:59]		  12:57  		 2
02066 		  029		  09 7 [09:00-16:59]		  12:57  		 2
02159 		  001		  09 7 [09:00-16:59]		  12:58  		 2
