ONLINE REQUESTS:           128
TIME HORIZON:                  09 8 [09:00-16:59]
TIME BUCKETS IN HORIZON:   4   09 2 [09:00-10:59]     11 2 [11:00-12:59]     13 2 [13:00-14:59]     15 2 [15:00-16:59]
TIME BUCKETS FOR REQUESTS: 2   09 2 [09:00-10:59]     11 2 [11:00-12:59]
----------------------------------------------------------------------------------------------------------------------

NODE 		  VOL 		  TIME WINDOW 				  TIME REQUEST   TIME BUCKET
02476 		  006		  09 7 [09:00-16:59]		  09:00  		 1
00719 		  013		  09 7 [09:00-16:59]		  09:01  		 1
00717 		  001		  09 7 [09:00-16:59]		  09:04  		 1
05320 		  003		  09 7 [09:00-16:59]		  09:09  		 1
02362 		  001		  09 7 [09:00-16:59]		  09:09  		 1
02251 		  003		  09 7 [09:00-16:59]		  09:12  		 1
01098 		  003		  09 7 [09:00-16:59]		  09:14  		 1
02612 		  015		  09 7 [09:00-16:59]		  09:14  		 1
02093 		  026		  09 7 [09:00-16:59]		  09:18  		 1
05283 		  005		  09 7 [09:00-16:59]		  09:18  		 1
02385 		  001		  09 7 [09:00-16:59]		  09:19  		 1
02384 		  003		  09 7 [09:00-16:59]		  09:20  		 1
02427 		  005		  09 7 [09:00-16:59]		  09:20  		 1
06032 		  003		  09 7 [09:00-16:59]		  09:23  		 1
02431 		  001		  09 7 [09:00-16:59]		  09:27  		 1
02561 		  003		  09 7 [09:00-16:59]		  09:27  		 1
02430 		  046		  09 7 [09:00-16:59]		  09:29  		 1
02353 		  010		  09 7 [09:00-16:59]		  09:30  		 1
02305 		  002		  09 7 [09:00-16:59]		  09:31  		 1
02491 		  001		  09 7 [09:00-16:59]		  09:32  		 1
05136 		  002		  09 7 [09:00-16:59]		  09:34  		 1
02379 		  002		  09 7 [09:00-16:59]		  09:38  		 1
02186 		  002		  09 7 [09:00-16:59]		  09:39  		 1
00718 		  002		  09 7 [09:00-16:59]		  09:39  		 1
02556 		  002		  09 7 [09:00-16:59]		  09:39  		 1
05429 		  042		  09 7 [09:00-16:59]		  09:41  		 1
05066 		  001		  09 7 [09:00-16:59]		  09:45  		 1
02535 		  002		  09 7 [09:00-16:59]		  09:49  		 1
02373 		  005		  09 7 [09:00-16:59]		  09:55  		 1
02604 		  014		  09 7 [09:00-16:59]		  09:56  		 1
00763 		  003		  09 7 [09:00-16:59]		  10:02  		 1
02235 		  003		  09 7 [09:00-16:59]		  10:18  		 1
02257 		  002		  09 7 [09:00-16:59]		  10:20  		 1
02350 		  016		  09 7 [09:00-16:59]		  10:23  		 1
02142 		  005		  09 7 [09:00-16:59]		  10:24  		 1
02115 		  032		  09 7 [09:00-16:59]		  10:26  		 1
02119 		  035		  09 7 [09:00-16:59]		  10:26  		 1
05257 		  003		  09 7 [09:00-16:59]		  10:27  		 1
02246 		  013		  09 7 [09:00-16:59]		  10:28  		 1
02544 		  002		  09 7 [09:00-16:59]		  10:30  		 1
02040 		  002		  09 7 [09:00-16:59]		  10:33  		 1
02318 		  005		  09 7 [09:00-16:59]		  10:38  		 1
02133 		  014		  09 7 [09:00-16:59]		  10:38  		 1
02189 		  029		  09 7 [09:00-16:59]		  10:38  		 1
02478 		  003		  09 7 [09:00-16:59]		  10:40  		 1
02258 		  012		  09 7 [09:00-16:59]		  10:45  		 1
00688 		  002		  09 7 [09:00-16:59]		  10:47  		 1
02317 		  002		  09 7 [09:00-16:59]		  10:50  		 1
50563 		  048		  09 7 [09:00-16:59]		  10:51  		 1
05294 		  024		  09 7 [09:00-16:59]		  10:56  		 1
02393 		  005		  09 7 [09:00-16:59]		  10:56  		 1
02155 		  013		  09 7 [09:00-16:59]		  11:03  		 2
02064 		  001		  09 7 [09:00-16:59]		  11:06  		 2
02305 		  002		  09 7 [09:00-16:59]		  11:08  		 2
50548 		  011		  09 7 [09:00-16:59]		  11:11  		 2
02193 		  003		  09 7 [09:00-16:59]		  11:11  		 2
02366 		  032		  09 7 [09:00-16:59]		  11:13  		 2
02032 		  039		  09 7 [09:00-16:59]		  11:16  		 2
05131 		  004		  09 7 [09:00-16:59]		  11:17  		 2
02102 		  006		  09 7 [09:00-16:59]		  11:17  		 2
00754 		  027		  09 7 [09:00-16:59]		  11:17  		 2
02159 		  001		  09 7 [09:00-16:59]		  11:18  		 2
02321 		  003		  09 7 [09:00-16:59]		  11:18  		 2
02221 		  003		  09 7 [09:00-16:59]		  11:19  		 2
02483 		  001		  09 7 [09:00-16:59]		  11:20  		 2
50549 		  001		  09 7 [09:00-16:59]		  11:21  		 2
02451 		  003		  09 7 [09:00-16:59]		  11:23  		 2
02133 		  014		  09 7 [09:00-16:59]		  11:27  		 2
02459 		  002		  09 7 [09:00-16:59]		  11:29  		 2
02436 		  001		  09 7 [09:00-16:59]		  11:29  		 2
02230 		  040		  09 7 [09:00-16:59]		  11:32  		 2
02262 		  001		  09 7 [09:00-16:59]		  11:34  		 2
02261 		  006		  09 7 [09:00-16:59]		  11:37  		 2
00690 		  001		  09 7 [09:00-16:59]		  11:37  		 2
01089 		  004		  09 7 [09:00-16:59]		  11:39  		 2
00752 		  002		  09 7 [09:00-16:59]		  11:45  		 2
02572 		  002		  09 7 [09:00-16:59]		  11:45  		 2
02158 		  013		  09 7 [09:00-16:59]		  11:51  		 2
02592 		  039		  09 7 [09:00-16:59]		  11:51  		 2
02083 		  004		  09 7 [09:00-16:59]		  11:53  		 2
02357 		  003		  09 7 [09:00-16:59]		  11:54  		 2
02403 		  003		  09 7 [09:00-16:59]		  11:54  		 2
00824 		  002		  09 7 [09:00-16:59]		  11:55  		 2
02067 		  003		  09 7 [09:00-16:59]		  11:57  		 2
02242 		  002		  09 7 [09:00-16:59]		  11:59  		 2
02566 		  003		  09 7 [09:00-16:59]		  12:00  		 2
02177 		  003		  09 7 [09:00-16:59]		  12:02  		 2
02620 		  002		  09 7 [09:00-16:59]		  12:05  		 2
05109 		  035		  09 7 [09:00-16:59]		  12:05  		 2
02199 		  002		  09 7 [09:00-16:59]		  12:06  		 2
06032 		  003		  09 7 [09:00-16:59]		  12:09  		 2
02618 		  002		  09 7 [09:00-16:59]		  12:09  		 2
02257 		  002		  09 7 [09:00-16:59]		  12:13  		 2
02611 		  002		  09 7 [09:00-16:59]		  12:15  		 2
02061 		  048		  09 7 [09:00-16:59]		  12:15  		 2
02373 		  005		  09 7 [09:00-16:59]		  12:19  		 2
02448 		  005		  09 7 [09:00-16:59]		  12:21  		 2
00718 		  002		  09 7 [09:00-16:59]		  12:23  		 2
02375 		  001		  09 7 [09:00-16:59]		  12:23  		 2
02040 		  002		  09 7 [09:00-16:59]		  12:24  		 2
02456 		  001		  09 7 [09:00-16:59]		  12:24  		 2
41146 		  005		  09 7 [09:00-16:59]		  12:24  		 2
02622 		  004		  09 7 [09:00-16:59]		  12:25  		 2
02258 		  012		  09 7 [09:00-16:59]		  12:26  		 2
02062 		  002		  09 7 [09:00-16:59]		  12:26  		 2
02348 		  011		  09 7 [09:00-16:59]		  12:27  		 2
02050 		  004		  09 7 [09:00-16:59]		  12:27  		 2
50563 		  048		  09 7 [09:00-16:59]		  12:28  		 2
00699 		  002		  09 7 [09:00-16:59]		  12:28  		 2
02446 		  003		  09 7 [09:00-16:59]		  12:31  		 2
02266 		  004		  09 7 [09:00-16:59]		  12:33  		 2
00700 		  001		  09 7 [09:00-16:59]		  12:35  		 2
02081 		  001		  09 7 [09:00-16:59]		  12:37  		 2
02210 		  004		  09 7 [09:00-16:59]		  12:39  		 2
02066 		  029		  09 7 [09:00-16:59]		  12:39  		 2
02328 		  014		  09 7 [09:00-16:59]		  12:39  		 2
00770 		  001		  09 7 [09:00-16:59]		  12:40  		 2
02200 		  036		  09 7 [09:00-16:59]		  12:40  		 2
50541 		  003		  09 7 [09:00-16:59]		  12:42  		 2
02469 		  001		  09 7 [09:00-16:59]		  12:42  		 2
02561 		  003		  09 7 [09:00-16:59]		  12:43  		 2
02308 		  002		  09 7 [09:00-16:59]		  12:45  		 2
02175 		  001		  09 7 [09:00-16:59]		  12:47  		 2
02466 		  022		  09 7 [09:00-16:59]		  12:47  		 2
02036 		  005		  09 7 [09:00-16:59]		  12:51  		 2
02204 		  013		  09 7 [09:00-16:59]		  12:55  		 2
02047 		  002		  09 7 [09:00-16:59]		  12:58  		 2
02582 		  003		  09 7 [09:00-16:59]		  12:59  		 2
