ONLINE REQUESTS:           13
TIME HORIZON:                  09 8 [09:00-16:59]
TIME BUCKETS IN HORIZON:   4   09 2 [09:00-10:59]     11 2 [11:00-12:59]     13 2 [13:00-14:59]     15 2 [15:00-16:59]
TIME BUCKETS FOR REQUESTS: 2   09 2 [09:00-10:59]     11 2 [11:00-12:59]
----------------------------------------------------------------------------------------------------------------------

NODE 		  VOL 		  TIME WINDOW 				  TIME REQUEST   TIME BUCKET
02331 		  002		  09 7 [09:00-16:59]		  09:16  		 1
02616 		  014		  09 7 [09:00-16:59]		  10:18  		 1
02435 		  011		  09 7 [09:00-16:59]		  10:33  		 1
02355 		  012		  09 7 [09:00-16:59]		  10:52  		 1
02182 		  003		  09 7 [09:00-16:59]		  10:54  		 1
02540 		  003		  09 7 [09:00-16:59]		  11:07  		 2
02343 		  008		  09 7 [09:00-16:59]		  11:43  		 2
02238 		  006		  09 7 [09:00-16:59]		  11:50  		 2
02477 		  002		  09 7 [09:00-16:59]		  12:23  		 2
00686 		  003		  09 7 [09:00-16:59]		  12:24  		 2
02553 		  003		  09 7 [09:00-16:59]		  12:29  		 2
02605 		  011		  09 7 [09:00-16:59]		  12:29  		 2
02298 		  001		  09 7 [09:00-16:59]		  12:50  		 2
