ONLINE REQUESTS:           17
TIME HORIZON:                  09 8 [09:00-16:59]
TIME BUCKETS IN HORIZON:   4   09 2 [09:00-10:59]     11 2 [11:00-12:59]     13 2 [13:00-14:59]     15 2 [15:00-16:59]
TIME BUCKETS FOR REQUESTS: 2   09 2 [09:00-10:59]     11 2 [11:00-12:59]
----------------------------------------------------------------------------------------------------------------------

NODE 		  VOL 		  TIME WINDOW 				  TIME REQUEST   TIME BUCKET
02182 		  003		  09 7 [09:00-16:59]		  09:06  		 1
02435 		  011		  09 7 [09:00-16:59]		  09:16  		 1
02331 		  002		  09 7 [09:00-16:59]		  10:08  		 1
02355 		  012		  09 7 [09:00-16:59]		  10:27  		 1
02616 		  014		  09 7 [09:00-16:59]		  10:32  		 1
02618 		  033		  09 7 [09:00-16:59]		  10:41  		 1
02032 		  004		  09 7 [09:00-16:59]		  10:45  		 1
02553 		  003		  09 7 [09:00-16:59]		  11:29  		 2
02477 		  002		  09 7 [09:00-16:59]		  11:32  		 2
02605 		  011		  09 7 [09:00-16:59]		  11:35  		 2
02343 		  008		  09 7 [09:00-16:59]		  12:04  		 2
00686 		  003		  09 7 [09:00-16:59]		  12:31  		 2
02354 		  001		  09 7 [09:00-16:59]		  12:33  		 2
02238 		  006		  09 7 [09:00-16:59]		  12:50  		 2
02298 		  001		  09 7 [09:00-16:59]		  12:52  		 2
02332 		  003		  09 7 [09:00-16:59]		  12:56  		 2
02540 		  003		  09 7 [09:00-16:59]		  12:57  		 2
