ONLINE REQUESTS:           11
TIME HORIZON:                  09 8 [09:00-16:59]
TIME BUCKETS IN HORIZON:   4   09 2 [09:00-10:59]     11 2 [11:00-12:59]     13 2 [13:00-14:59]     15 2 [15:00-16:59]
TIME BUCKETS FOR REQUESTS: 2   09 2 [09:00-10:59]     11 2 [11:00-12:59]
----------------------------------------------------------------------------------------------------------------------

NODE 		  VOL 		  TIME WINDOW 				  TIME REQUEST   TIME BUCKET
02616 		  014		  09 7 [09:00-16:59]		  09:18  		 1
02435 		  011		  09 7 [09:00-16:59]		  09:38  		 1
02618 		  033		  09 7 [09:00-16:59]		  09:43  		 1
02331 		  002		  09 7 [09:00-16:59]		  09:45  		 1
02382 		  048		  09 7 [09:00-16:59]		  11:02  		 2
02332 		  003		  09 7 [09:00-16:59]		  11:41  		 2
02343 		  008		  09 7 [09:00-16:59]		  11:50  		 2
02553 		  003		  09 7 [09:00-16:59]		  11:58  		 2
02477 		  002		  09 7 [09:00-16:59]		  12:00  		 2
02298 		  001		  09 7 [09:00-16:59]		  12:10  		 2
02354 		  001		  09 7 [09:00-16:59]		  12:37  		 2
