NODES: 436
TIME HORIZON:                  09 8 [09:00-16:59]
TIME BUCKETS IN HORIZON:   4   09 2 [09:00-10:59]     11 2 [11:00-12:59]     13 2 [13:00-14:59]     15 2 [15:00-16:59]
TIME BUCKETS FOR REQUESTS: 2   09 2 [09:00-10:59]     11 2 [11:00-12:59]
--------------------------------------------------------------------------------------------------------------------------------------------------------------

NODE 		 TYPE 		 VOL   		  TIME WINDOW  				  OFFLINE		09 2 [09:00-10:59]  11 2 [11:00-12:59]  13 2 [13:00-14:59]  15 2 [15:00-16:59]
00686 		 CST 		 003		  09 8 [09:00-16:59]		  1  			0.0000  			0.7186  			0.0000  			0.0000  			
00688 		 CST 		 002		  09 8 [09:00-16:59]		  0  			0.0204  			0.7704  			0.0000  			0.0000  			
00690 		 CST 		 001		  09 8 [09:00-16:59]		  0  			0.8022  			0.3017  			0.0000  			0.0000  			
00691 		 CST 		 006		  09 4 [09:00-12:59]		  1  			0.0000  			0.0000  			0.0000  			0.0000  			
00694 		 CST 		 003		  09 8 [09:00-16:59]		  1  			0.2520  			0.0000  			0.0000  			0.0000  			
00698 		 CST 		 001		  09 8 [09:00-16:59]		  1  			0.0000  			0.0000  			0.0000  			0.0000  			
00699 		 CST 		 002		  09 8 [09:00-16:59]		  1  			0.0000  			0.7047  			0.0000  			0.0000  			
00700 		 CST 		 001		  09 8 [09:00-16:59]		  1  			0.5464  			0.9436  			0.0000  			0.0000  			
00717 		 CST 		 001		  09 8 [09:00-16:59]		  0  			0.6637  			0.0000  			0.0000  			0.0000  			
00718 		 CST 		 002		  09 8 [09:00-16:59]		  1  			0.0000  			0.0790  			0.0000  			0.0000  			
00719 		 CST 		 013		  09 8 [09:00-16:59]		  1  			0.2006  			0.0000  			0.0000  			0.0000  			
00744 		 CST 		 002		  09 8 [09:00-16:59]		  1  			0.0000  			0.0000  			0.0000  			0.0000  			
00752 		 CST 		 002		  09 8 [09:00-16:59]		  1  			0.0000  			0.0252  			0.0000  			0.0000  			
00754 		 CST 		 027		  09 8 [09:00-16:59]		  1  			0.9368  			0.2648  			0.0000  			0.0000  			
00763 		 CST 		 003		  09 8 [09:00-16:59]		  0  			0.7836  			0.4495  			0.0000  			0.0000  			
00767 		 CST 		 001		  09 4 [09:00-12:59]		  1  			0.0000  			0.0000  			0.0000  			0.0000  			
00769 		 CST 		 024		  09 8 [09:00-16:59]		  1  			0.0000  			0.6366  			0.0000  			0.0000  			
00770 		 CST 		 001		  09 8 [09:00-16:59]		  1  			0.7311  			0.6543  			0.0000  			0.0000  			
00771 		 CST 		 003		  09 8 [09:00-16:59]		  1  			0.0000  			0.7394  			0.0000  			0.0000  			
00772 		 CST 		 002		  09 8 [09:00-16:59]		  1  			0.0000  			0.0000  			0.0000  			0.0000  			
00775 		 CST 		 016		  09 4 [09:00-12:59]		  1  			0.0000  			0.0000  			0.0000  			0.0000  			
00814 		 CST 		 011		  09 8 [09:00-16:59]		  0  			0.0000  			0.0449  			0.0000  			0.0000  			
00818 		 CST 		 001		  09 8 [09:00-16:59]		  1  			0.2695  			0.4544  			0.0000  			0.0000  			
00819 		 CST 		 032		  09 8 [09:00-16:59]		  1  			0.4061  			0.8845  			0.0000  			0.0000  			
00821 		 CST 		 002		  09 8 [09:00-16:59]		  1  			0.6229  			0.3819  			0.0000  			0.0000  			
00822 		 CST 		 006		  09 8 [09:00-16:59]		  1  			0.0000  			0.0000  			0.0000  			0.0000  			
00823 		 CST 		 019		  09 8 [09:00-16:59]		  1  			0.3341  			0.0000  			0.0000  			0.0000  			
00824 		 CST 		 002		  09 8 [09:00-16:59]		  0  			0.0000  			0.3557  			0.0000  			0.0000  			
01088 		 CST 		 003		  09 8 [09:00-16:59]		  1  			0.0000  			0.0000  			0.0000  			0.0000  			
01089 		 CST 		 004		  09 8 [09:00-16:59]		  1  			0.8118  			0.2217  			0.0000  			0.0000  			
01091 		 CST 		 041		  09 8 [09:00-16:59]		  0  			0.1195  			0.4034  			0.0000  			0.0000  			
01092 		 CST 		 004		  09 4 [09:00-12:59]		  1  			0.0000  			0.0000  			0.0000  			0.0000  			
01093 		 CST 		 004		  09 4 [09:00-12:59]		  1  			0.0000  			0.0000  			0.0000  			0.0000  			
01096 		 CST 		 002		  09 8 [09:00-16:59]		  0  			0.0000  			0.7190  			0.0000  			0.0000  			
01097 		 CST 		 039		  09 4 [09:00-12:59]		  1  			0.0000  			0.0000  			0.0000  			0.0000  			
01098 		 CST 		 003		  09 8 [09:00-16:59]		  1  			0.0418  			0.8660  			0.0000  			0.0000  			
01105 		 CST 		 004		  09 8 [09:00-16:59]		  0  			0.7766  			0.0000  			0.0000  			0.0000  			
01308 		 CST 		 003		  09 8 [09:00-16:59]		  1  			0.0000  			0.9922  			0.0000  			0.0000  			
01322 		 CST 		 021		  09 8 [09:00-16:59]		  1  			0.0000  			0.0000  			0.0000  			0.0000  			
01330 		 CST 		 001		  09 4 [09:00-12:59]		  1  			0.0000  			0.0000  			0.0000  			0.0000  			
01332 		 CST 		 011		  09 4 [09:00-12:59]		  1  			0.0000  			0.0000  			0.0000  			0.0000  			
01356 		 CST 		 009		  09 8 [09:00-16:59]		  1  			0.9134  			0.0000  			0.0000  			0.0000  			
01357 		 CST 		 041		  09 8 [09:00-16:59]		  1  			0.5419  			0.0000  			0.0000  			0.0000  			
02010 		 CST 		 041		  09 8 [09:00-16:59]		  0  			0.0000  			0.3799  			0.0000  			0.0000  			
02012 		 CST 		 002		  09 8 [09:00-16:59]		  1  			0.0000  			0.0000  			0.0000  			0.0000  			
02027 		 CST 		 003		  09 8 [09:00-16:59]		  1  			0.7748  			0.2885  			0.0000  			0.0000  			
02028 		 CST 		 003		  09 8 [09:00-16:59]		  1  			0.8993  			0.3568  			0.0000  			0.0000  			
02031 		 CST 		 016		  09 8 [09:00-16:59]		  1  			0.0000  			0.0000  			0.0000  			0.0000  			
02032 		 CST 		 039		  09 8 [09:00-16:59]		  1  			0.0000  			0.7550  			0.0000  			0.0000  			
02035 		 CST 		 002		  09 8 [09:00-16:59]		  0  			0.0000  			0.8827  			0.0000  			0.0000  			
02036 		 CST 		 005		  09 8 [09:00-16:59]		  0  			0.4809  			0.0000  			0.0000  			0.0000  			
02038 		 CST 		 002		  09 8 [09:00-16:59]		  1  			0.0000  			0.0000  			0.0000  			0.0000  			
02040 		 CST 		 002		  09 8 [09:00-16:59]		  1  			0.0000  			0.1122  			0.0000  			0.0000  			
02041 		 CST 		 025		  09 4 [09:00-12:59]		  1  			0.0000  			0.0000  			0.0000  			0.0000  			
02044 		 CST 		 009		  09 8 [09:00-16:59]		  1  			0.0000  			0.3364  			0.0000  			0.0000  			
02045 		 CST 		 003		  09 4 [09:00-12:59]		  1  			0.0000  			0.0000  			0.0000  			0.0000  			
02046 		 CST 		 002		  09 8 [09:00-16:59]		  0  			0.0000  			0.9973  			0.0000  			0.0000  			
02047 		 CST 		 002		  09 8 [09:00-16:59]		  1  			0.0000  			0.0000  			0.0000  			0.0000  			
02050 		 CST 		 004		  09 8 [09:00-16:59]		  1  			0.1969  			0.8697  			0.0000  			0.0000  			
02052 		 CST 		 004		  09 8 [09:00-16:59]		  1  			0.0000  			0.0000  			0.0000  			0.0000  			
02058 		 CST 		 001		  09 4 [09:00-12:59]		  1  			0.0000  			0.0000  			0.0000  			0.0000  			
02061 		 CST 		 048		  09 8 [09:00-16:59]		  1  			0.0000  			0.1942  			0.0000  			0.0000  			
02064 		 CST 		 001		  09 8 [09:00-16:59]		  1  			0.0000  			0.9243  			0.0000  			0.0000  			
02066 		 CST 		 029		  09 8 [09:00-16:59]		  1  			0.2724  			0.0000  			0.0000  			0.0000  			
02067 		 CST 		 003		  09 8 [09:00-16:59]		  1  			0.0000  			0.1141  			0.0000  			0.0000  			
02068 		 CST 		 003		  09 4 [09:00-12:59]		  1  			0.0000  			0.0000  			0.0000  			0.0000  			
02069 		 CST 		 003		  09 8 [09:00-16:59]		  1  			0.1747  			0.4091  			0.0000  			0.0000  			
02070 		 CST 		 001		  09 8 [09:00-16:59]		  1  			0.0000  			0.3579  			0.0000  			0.0000  			
02071 		 CST 		 001		  09 4 [09:00-12:59]		  1  			0.0000  			0.0000  			0.0000  			0.0000  			
02072 		 CST 		 012		  09 8 [09:00-16:59]		  1  			0.2773  			0.7782  			0.0000  			0.0000  			
02074 		 CST 		 001		  09 8 [09:00-16:59]		  0  			0.0000  			0.2966  			0.0000  			0.0000  			
02081 		 CST 		 001		  09 8 [09:00-16:59]		  0  			0.0000  			0.5382  			0.0000  			0.0000  			
02083 		 CST 		 004		  09 8 [09:00-16:59]		  1  			0.0000  			0.0000  			0.0000  			0.0000  			
02088 		 CST 		 006		  09 8 [09:00-16:59]		  1  			0.0000  			0.0000  			0.0000  			0.0000  			
02093 		 CST 		 026		  09 8 [09:00-16:59]		  1  			0.0000  			0.6546  			0.0000  			0.0000  			
02095 		 CST 		 003		  09 8 [09:00-16:59]		  1  			0.5401  			0.9289  			0.0000  			0.0000  			
02096 		 CST 		 007		  09 8 [09:00-16:59]		  1  			0.0000  			0.0000  			0.0000  			0.0000  			
02099 		 CST 		 036		  09 8 [09:00-16:59]		  1  			0.0000  			0.0218  			0.0000  			0.0000  			
02102 		 CST 		 006		  09 8 [09:00-16:59]		  1  			0.0000  			0.3431  			0.0000  			0.0000  			
02104 		 CST 		 006		  09 8 [09:00-16:59]		  1  			0.0000  			0.2939  			0.0000  			0.0000  			
02111 		 CST 		 003		  09 4 [09:00-12:59]		  1  			0.0000  			0.0000  			0.0000  			0.0000  			
02114 		 CST 		 044		  09 8 [09:00-16:59]		  0  			0.0000  			0.5760  			0.0000  			0.0000  			
02117 		 CST 		 006		  09 8 [09:00-16:59]		  1  			0.1968  			0.0000  			0.0000  			0.0000  			
02120 		 CST 		 004		  09 8 [09:00-16:59]		  1  			0.0000  			0.0413  			0.0000  			0.0000  			
02127 		 CST 		 042		  09 8 [09:00-16:59]		  1  			0.0658  			0.3404  			0.0000  			0.0000  			
02130 		 CST 		 002		  09 4 [09:00-12:59]		  1  			0.0000  			0.0000  			0.0000  			0.0000  			
02133 		 CST 		 014		  09 8 [09:00-16:59]		  0  			0.9847  			0.7963  			0.0000  			0.0000  			
02135 		 CST 		 002		  09 4 [09:00-12:59]		  1  			0.0000  			0.0000  			0.0000  			0.0000  			
02136 		 CST 		 036		  09 4 [09:00-12:59]		  1  			0.0000  			0.0000  			0.0000  			0.0000  			
02137 		 CST 		 002		  09 8 [09:00-16:59]		  0  			0.5955  			0.1090  			0.0000  			0.0000  			
02138 		 CST 		 015		  09 8 [09:00-16:59]		  1  			0.8490  			0.0440  			0.0000  			0.0000  			
02139 		 CST 		 002		  09 4 [09:00-12:59]		  1  			0.0000  			0.0000  			0.0000  			0.0000  			
02140 		 CST 		 002		  09 8 [09:00-16:59]		  1  			0.4541  			0.3260  			0.0000  			0.0000  			
02141 		 CST 		 002		  09 4 [09:00-12:59]		  1  			0.0000  			0.0000  			0.0000  			0.0000  			
02142 		 CST 		 005		  09 8 [09:00-16:59]		  1  			0.5439  			0.7878  			0.0000  			0.0000  			
02144 		 CST 		 034		  09 4 [09:00-12:59]		  1  			0.0000  			0.0000  			0.0000  			0.0000  			
02146 		 CST 		 021		  09 8 [09:00-16:59]		  0  			0.4072  			0.0000  			0.0000  			0.0000  			
02149 		 CST 		 006		  09 8 [09:00-16:59]		  1  			0.1167  			0.1267  			0.0000  			0.0000  			
02152 		 CST 		 018		  09 8 [09:00-16:59]		  0  			0.5680  			0.2211  			0.0000  			0.0000  			
02155 		 CST 		 013		  09 8 [09:00-16:59]		  1  			0.0000  			0.9233  			0.0000  			0.0000  			
02157 		 CST 		 001		  09 8 [09:00-16:59]		  1  			0.9120  			0.0642  			0.0000  			0.0000  			
02158 		 CST 		 013		  09 8 [09:00-16:59]		  1  			0.0000  			0.4965  			0.0000  			0.0000  			
02159 		 CST 		 001		  09 8 [09:00-16:59]		  0  			0.7767  			0.1626  			0.0000  			0.0000  			
02161 		 CST 		 003		  09 4 [09:00-12:59]		  1  			0.0000  			0.0000  			0.0000  			0.0000  			
02163 		 CST 		 003		  09 4 [09:00-12:59]		  1  			0.0000  			0.0000  			0.0000  			0.0000  			
02164 		 CST 		 003		  09 4 [09:00-12:59]		  1  			0.0000  			0.0000  			0.0000  			0.0000  			
02166 		 CST 		 002		  09 8 [09:00-16:59]		  1  			0.0000  			0.7117  			0.0000  			0.0000  			
02172 		 CST 		 001		  09 8 [09:00-16:59]		  1  			0.6006  			0.4583  			0.0000  			0.0000  			
02174 		 CST 		 040		  09 8 [09:00-16:59]		  0  			0.0000  			0.4410  			0.0000  			0.0000  			
02175 		 CST 		 001		  09 8 [09:00-16:59]		  0  			0.0000  			0.8847  			0.0000  			0.0000  			
02177 		 CST 		 003		  09 8 [09:00-16:59]		  1  			0.0000  			0.8714  			0.0000  			0.0000  			
02179 		 CST 		 002		  09 8 [09:00-16:59]		  0  			0.0000  			0.9087  			0.0000  			0.0000  			
02182 		 CST 		 002		  09 4 [09:00-12:59]		  1  			0.0000  			0.0000  			0.0000  			0.0000  			
02183 		 CST 		 001		  09 4 [09:00-12:59]		  1  			0.0000  			0.0000  			0.0000  			0.0000  			
02184 		 CST 		 002		  09 8 [09:00-16:59]		  1  			0.0000  			0.0000  			0.0000  			0.0000  			
02185 		 CST 		 004		  09 8 [09:00-16:59]		  1  			0.0000  			0.4223  			0.0000  			0.0000  			
02186 		 CST 		 002		  09 8 [09:00-16:59]		  0  			0.8041  			0.2032  			0.0000  			0.0000  			
02188 		 CST 		 005		  09 8 [09:00-16:59]		  0  			0.3004  			0.6376  			0.0000  			0.0000  			
02189 		 CST 		 029		  09 8 [09:00-16:59]		  1  			0.8193  			0.0094  			0.0000  			0.0000  			
02190 		 CST 		 004		  09 8 [09:00-16:59]		  1  			0.0000  			0.5452  			0.0000  			0.0000  			
02193 		 CST 		 003		  09 8 [09:00-16:59]		  1  			0.0000  			0.0899  			0.0000  			0.0000  			
02194 		 CST 		 003		  09 8 [09:00-16:59]		  0  			0.0515  			0.0000  			0.0000  			0.0000  			
02195 		 CST 		 002		  09 8 [09:00-16:59]		  1  			0.8801  			0.9548  			0.0000  			0.0000  			
02199 		 CST 		 002		  09 8 [09:00-16:59]		  1  			0.6958  			0.7440  			0.0000  			0.0000  			
02200 		 CST 		 036		  09 8 [09:00-16:59]		  1  			0.9801  			0.0000  			0.0000  			0.0000  			
02201 		 CST 		 002		  09 8 [09:00-16:59]		  1  			0.4957  			0.4269  			0.0000  			0.0000  			
02202 		 CST 		 002		  09 8 [09:00-16:59]		  1  			0.0000  			0.0522  			0.0000  			0.0000  			
02203 		 CST 		 010		  09 4 [09:00-12:59]		  1  			0.0000  			0.0000  			0.0000  			0.0000  			
02204 		 CST 		 013		  09 8 [09:00-16:59]		  0  			0.5739  			0.7587  			0.0000  			0.0000  			
02205 		 CST 		 050		  09 8 [09:00-16:59]		  1  			0.0000  			0.2665  			0.0000  			0.0000  			
02206 		 CST 		 001		  09 8 [09:00-16:59]		  1  			0.7841  			0.5887  			0.0000  			0.0000  			
02208 		 CST 		 003		  09 8 [09:00-16:59]		  1  			0.4327  			0.7171  			0.0000  			0.0000  			
02210 		 CST 		 004		  09 8 [09:00-16:59]		  0  			0.0000  			0.6666  			0.0000  			0.0000  			
02211 		 CST 		 002		  09 8 [09:00-16:59]		  1  			0.0000  			0.0000  			0.0000  			0.0000  			
02212 		 CST 		 039		  09 8 [09:00-16:59]		  1  			0.9915  			0.3378  			0.0000  			0.0000  			
02213 		 CST 		 002		  09 4 [09:00-12:59]		  1  			0.0000  			0.0000  			0.0000  			0.0000  			
02214 		 CST 		 002		  09 8 [09:00-16:59]		  1  			0.1676  			0.6085  			0.0000  			0.0000  			
02215 		 CST 		 003		  09 4 [09:00-12:59]		  1  			0.0000  			0.0000  			0.0000  			0.0000  			
02216 		 CST 		 003		  09 8 [09:00-16:59]		  1  			0.0000  			0.2158  			0.0000  			0.0000  			
02221 		 CST 		 003		  09 8 [09:00-16:59]		  0  			0.2965  			0.7655  			0.0000  			0.0000  			
02224 		 CST 		 033		  09 8 [09:00-16:59]		  1  			0.0000  			0.0000  			0.0000  			0.0000  			
02225 		 CST 		 043		  09 4 [09:00-12:59]		  1  			0.0000  			0.0000  			0.0000  			0.0000  			
02226 		 CST 		 001		  09 8 [09:00-16:59]		  1  			0.0000  			0.6923  			0.0000  			0.0000  			
02227 		 CST 		 038		  09 8 [09:00-16:59]		  1  			0.0000  			0.0000  			0.0000  			0.0000  			
02228 		 CST 		 003		  09 8 [09:00-16:59]		  0  			0.0000  			0.2490  			0.0000  			0.0000  			
02229 		 CST 		 002		  09 8 [09:00-16:59]		  0  			0.0000  			0.7530  			0.0000  			0.0000  			
02230 		 CST 		 040		  09 8 [09:00-16:59]		  1  			0.0000  			0.6754  			0.0000  			0.0000  			
02232 		 CST 		 002		  09 8 [09:00-16:59]		  1  			0.0000  			0.7901  			0.0000  			0.0000  			
02233 		 CST 		 038		  09 4 [09:00-12:59]		  1  			0.0000  			0.0000  			0.0000  			0.0000  			
02234 		 CST 		 028		  09 8 [09:00-16:59]		  1  			0.6748  			0.5714  			0.0000  			0.0000  			
02235 		 CST 		 003		  09 8 [09:00-16:59]		  1  			0.0000  			0.0000  			0.0000  			0.0000  			
02237 		 CST 		 001		  09 8 [09:00-16:59]		  1  			0.0000  			0.0000  			0.0000  			0.0000  			
02239 		 CST 		 001		  09 8 [09:00-16:59]		  1  			0.0000  			0.3214  			0.0000  			0.0000  			
02242 		 CST 		 002		  09 8 [09:00-16:59]		  1  			0.2595  			0.9331  			0.0000  			0.0000  			
02247 		 CST 		 003		  09 8 [09:00-16:59]		  1  			0.9591  			0.1513  			0.0000  			0.0000  			
02249 		 CST 		 002		  09 4 [09:00-12:59]		  1  			0.0000  			0.0000  			0.0000  			0.0000  			
02250 		 CST 		 005		  09 8 [09:00-16:59]		  0  			0.0330  			0.0000  			0.0000  			0.0000  			
02251 		 CST 		 003		  09 8 [09:00-16:59]		  1  			0.0000  			0.3786  			0.0000  			0.0000  			
02252 		 CST 		 024		  09 8 [09:00-16:59]		  1  			0.0000  			0.5667  			0.0000  			0.0000  			
02255 		 CST 		 001		  09 4 [09:00-12:59]		  1  			0.0000  			0.0000  			0.0000  			0.0000  			
02256 		 CST 		 001		  09 8 [09:00-16:59]		  1  			0.9014  			0.6655  			0.0000  			0.0000  			
02258 		 CST 		 012		  09 8 [09:00-16:59]		  1  			0.0000  			0.4870  			0.0000  			0.0000  			
02261 		 CST 		 006		  09 8 [09:00-16:59]		  1  			0.0000  			0.4555  			0.0000  			0.0000  			
02263 		 CST 		 003		  09 8 [09:00-16:59]		  1  			0.7978  			0.9392  			0.0000  			0.0000  			
02264 		 CST 		 002		  09 8 [09:00-16:59]		  1  			0.0000  			0.0000  			0.0000  			0.0000  			
02265 		 CST 		 001		  09 8 [09:00-16:59]		  1  			0.0000  			0.0000  			0.0000  			0.0000  			
02271 		 CST 		 019		  09 4 [09:00-12:59]		  1  			0.0000  			0.0000  			0.0000  			0.0000  			
02273 		 CST 		 002		  09 8 [09:00-16:59]		  1  			0.0000  			0.8693  			0.0000  			0.0000  			
02274 		 CST 		 001		  09 8 [09:00-16:59]		  1  			0.9598  			0.2888  			0.0000  			0.0000  			
02275 		 CST 		 003		  09 4 [09:00-12:59]		  1  			0.0000  			0.0000  			0.0000  			0.0000  			
02276 		 CST 		 011		  09 8 [09:00-16:59]		  1  			0.2843  			0.0000  			0.0000  			0.0000  			
02277 		 CST 		 003		  09 4 [09:00-12:59]		  1  			0.0000  			0.0000  			0.0000  			0.0000  			
02278 		 CST 		 002		  09 8 [09:00-16:59]		  1  			0.0000  			0.0228  			0.0000  			0.0000  			
02280 		 CST 		 002		  09 8 [09:00-16:59]		  1  			0.0000  			0.7269  			0.0000  			0.0000  			
02282 		 CST 		 003		  09 8 [09:00-16:59]		  1  			0.5346  			0.1385  			0.0000  			0.0000  			
02283 		 CST 		 038		  09 4 [09:00-12:59]		  1  			0.0000  			0.0000  			0.0000  			0.0000  			
02290 		 CST 		 002		  09 4 [09:00-12:59]		  1  			0.0000  			0.0000  			0.0000  			0.0000  			
02293 		 CST 		 002		  09 8 [09:00-16:59]		  1  			0.0000  			0.6644  			0.0000  			0.0000  			
02294 		 CST 		 021		  09 4 [09:00-12:59]		  1  			0.0000  			0.0000  			0.0000  			0.0000  			
02295 		 CST 		 018		  09 4 [09:00-12:59]		  1  			0.0000  			0.0000  			0.0000  			0.0000  			
02296 		 CST 		 004		  09 8 [09:00-16:59]		  1  			0.8440  			0.8550  			0.0000  			0.0000  			
02297 		 CST 		 005		  09 8 [09:00-16:59]		  1  			0.0000  			0.7465  			0.0000  			0.0000  			
02298 		 CST 		 003		  09 8 [09:00-16:59]		  1  			0.1387  			0.0000  			0.0000  			0.0000  			
02300 		 CST 		 003		  09 8 [09:00-16:59]		  1  			0.0000  			0.2465  			0.0000  			0.0000  			
02302 		 CST 		 006		  09 8 [09:00-16:59]		  1  			0.0000  			0.0000  			0.0000  			0.0000  			
02303 		 CST 		 001		  09 8 [09:00-16:59]		  1  			0.6748  			0.3891  			0.0000  			0.0000  			
02304 		 CST 		 013		  09 8 [09:00-16:59]		  0  			0.7974  			0.5154  			0.0000  			0.0000  			
02306 		 CST 		 010		  09 4 [09:00-12:59]		  1  			0.0000  			0.0000  			0.0000  			0.0000  			
02308 		 CST 		 002		  09 8 [09:00-16:59]		  1  			0.0000  			0.0290  			0.0000  			0.0000  			
02310 		 CST 		 015		  09 8 [09:00-16:59]		  1  			0.0000  			0.0813  			0.0000  			0.0000  			
02311 		 CST 		 027		  09 8 [09:00-16:59]		  0  			0.6346  			0.7878  			0.0000  			0.0000  			
02312 		 CST 		 003		  09 4 [09:00-12:59]		  1  			0.0000  			0.0000  			0.0000  			0.0000  			
02313 		 CST 		 001		  09 8 [09:00-16:59]		  1  			0.1097  			0.1769  			0.0000  			0.0000  			
02315 		 CST 		 001		  09 8 [09:00-16:59]		  1  			0.0000  			0.0000  			0.0000  			0.0000  			
02317 		 CST 		 002		  09 8 [09:00-16:59]		  1  			0.0000  			0.9131  			0.0000  			0.0000  			
02318 		 CST 		 005		  09 8 [09:00-16:59]		  1  			0.0000  			0.9706  			0.0000  			0.0000  			
02319 		 CST 		 001		  09 8 [09:00-16:59]		  1  			0.0000  			0.4188  			0.0000  			0.0000  			
02320 		 CST 		 006		  09 8 [09:00-16:59]		  1  			0.0000  			0.6175  			0.0000  			0.0000  			
02321 		 CST 		 003		  09 8 [09:00-16:59]		  1  			0.0000  			0.0000  			0.0000  			0.0000  			
02322 		 CST 		 001		  09 8 [09:00-16:59]		  0  			0.8522  			0.4162  			0.0000  			0.0000  			
02323 		 CST 		 002		  09 8 [09:00-16:59]		  1  			0.0000  			0.5260  			0.0000  			0.0000  			
02325 		 CST 		 006		  09 8 [09:00-16:59]		  0  			0.0000  			0.1754  			0.0000  			0.0000  			
02326 		 CST 		 002		  09 8 [09:00-16:59]		  1  			0.0000  			0.2397  			0.0000  			0.0000  			
02327 		 CST 		 013		  09 8 [09:00-16:59]		  1  			0.0000  			0.3478  			0.0000  			0.0000  			
02328 		 CST 		 014		  09 8 [09:00-16:59]		  0  			0.0000  			0.6496  			0.0000  			0.0000  			
02329 		 CST 		 025		  09 4 [09:00-12:59]		  1  			0.0000  			0.0000  			0.0000  			0.0000  			
02332 		 CST 		 002		  09 8 [09:00-16:59]		  1  			0.1949  			0.0000  			0.0000  			0.0000  			
02336 		 CST 		 003		  09 8 [09:00-16:59]		  1  			0.3475  			0.0000  			0.0000  			0.0000  			
02337 		 CST 		 002		  09 8 [09:00-16:59]		  0  			0.0000  			0.6446  			0.0000  			0.0000  			
02339 		 CST 		 002		  09 4 [09:00-12:59]		  1  			0.0000  			0.0000  			0.0000  			0.0000  			
02340 		 CST 		 002		  09 8 [09:00-16:59]		  1  			0.0782  			0.6699  			0.0000  			0.0000  			
02341 		 CST 		 004		  09 8 [09:00-16:59]		  1  			0.0000  			0.2854  			0.0000  			0.0000  			
02342 		 CST 		 004		  09 8 [09:00-16:59]		  1  			0.0000  			0.0000  			0.0000  			0.0000  			
02343 		 CST 		 001		  09 4 [09:00-12:59]		  1  			0.0000  			0.0000  			0.0000  			0.0000  			
02344 		 CST 		 004		  09 8 [09:00-16:59]		  1  			0.0000  			0.0000  			0.0000  			0.0000  			
02346 		 CST 		 036		  09 4 [09:00-12:59]		  1  			0.0000  			0.0000  			0.0000  			0.0000  			
02347 		 CST 		 001		  09 8 [09:00-16:59]		  1  			0.0000  			0.0000  			0.0000  			0.0000  			
02348 		 CST 		 011		  09 8 [09:00-16:59]		  1  			0.0000  			0.0000  			0.0000  			0.0000  			
02349 		 CST 		 033		  09 8 [09:00-16:59]		  1  			0.1453  			0.8003  			0.0000  			0.0000  			
02350 		 CST 		 016		  09 8 [09:00-16:59]		  0  			0.0000  			0.1308  			0.0000  			0.0000  			
02351 		 CST 		 003		  09 8 [09:00-16:59]		  0  			0.0000  			0.0500  			0.0000  			0.0000  			
02352 		 CST 		 003		  09 8 [09:00-16:59]		  1  			0.8761  			0.4016  			0.0000  			0.0000  			
02353 		 CST 		 010		  09 8 [09:00-16:59]		  1  			0.9514  			0.1198  			0.0000  			0.0000  			
02356 		 CST 		 040		  09 8 [09:00-16:59]		  1  			0.6131  			0.0000  			0.0000  			0.0000  			
02357 		 CST 		 003		  09 8 [09:00-16:59]		  1  			0.6446  			0.0000  			0.0000  			0.0000  			
02358 		 CST 		 006		  09 4 [09:00-12:59]		  1  			0.0000  			0.0000  			0.0000  			0.0000  			
02359 		 CST 		 040		  09 8 [09:00-16:59]		  1  			0.0000  			0.7678  			0.0000  			0.0000  			
02360 		 CST 		 004		  09 4 [09:00-12:59]		  1  			0.0000  			0.0000  			0.0000  			0.0000  			
02361 		 CST 		 002		  09 8 [09:00-16:59]		  0  			0.0000  			0.0362  			0.0000  			0.0000  			
02362 		 CST 		 001		  09 8 [09:00-16:59]		  1  			0.0000  			0.3441  			0.0000  			0.0000  			
02364 		 CST 		 002		  09 8 [09:00-16:59]		  1  			0.6978  			0.8335  			0.0000  			0.0000  			
02365 		 CST 		 002		  09 8 [09:00-16:59]		  1  			0.3789  			0.9740  			0.0000  			0.0000  			
02366 		 CST 		 032		  09 8 [09:00-16:59]		  1  			0.1476  			0.0000  			0.0000  			0.0000  			
02367 		 CST 		 001		  09 4 [09:00-12:59]		  1  			0.0000  			0.0000  			0.0000  			0.0000  			
02368 		 CST 		 013		  09 8 [09:00-16:59]		  0  			0.8582  			0.0000  			0.0000  			0.0000  			
02370 		 CST 		 001		  09 8 [09:00-16:59]		  1  			0.0000  			0.0000  			0.0000  			0.0000  			
02371 		 CST 		 009		  09 4 [09:00-12:59]		  1  			0.0000  			0.0000  			0.0000  			0.0000  			
02372 		 CST 		 036		  09 8 [09:00-16:59]		  0  			0.6401  			0.4176  			0.0000  			0.0000  			
02373 		 CST 		 005		  09 8 [09:00-16:59]		  0  			0.0000  			0.5849  			0.0000  			0.0000  			
02374 		 CST 		 024		  09 8 [09:00-16:59]		  1  			0.0000  			0.9945  			0.0000  			0.0000  			
02375 		 CST 		 001		  09 8 [09:00-16:59]		  0  			0.6597  			0.3981  			0.0000  			0.0000  			
02376 		 CST 		 033		  09 4 [09:00-12:59]		  1  			0.0000  			0.0000  			0.0000  			0.0000  			
02377 		 CST 		 003		  09 8 [09:00-16:59]		  0  			0.0000  			0.5950  			0.0000  			0.0000  			
02379 		 CST 		 002		  09 8 [09:00-16:59]		  1  			0.8525  			0.0000  			0.0000  			0.0000  			
02381 		 CST 		 013		  09 4 [09:00-12:59]		  1  			0.0000  			0.0000  			0.0000  			0.0000  			
02383 		 CST 		 001		  09 8 [09:00-16:59]		  1  			0.5635  			0.0000  			0.0000  			0.0000  			
02384 		 CST 		 003		  09 8 [09:00-16:59]		  1  			0.0663  			0.3847  			0.0000  			0.0000  			
02385 		 CST 		 001		  09 8 [09:00-16:59]		  1  			0.0000  			0.2346  			0.0000  			0.0000  			
02386 		 CST 		 001		  09 8 [09:00-16:59]		  1  			0.8083  			0.3393  			0.0000  			0.0000  			
02387 		 CST 		 001		  09 8 [09:00-16:59]		  1  			0.8095  			0.5391  			0.0000  			0.0000  			
02391 		 CST 		 001		  09 8 [09:00-16:59]		  1  			0.1507  			0.0000  			0.0000  			0.0000  			
02392 		 CST 		 001		  09 4 [09:00-12:59]		  1  			0.0000  			0.0000  			0.0000  			0.0000  			
02393 		 CST 		 005		  09 8 [09:00-16:59]		  1  			0.3323  			0.0000  			0.0000  			0.0000  			
02394 		 CST 		 003		  09 8 [09:00-16:59]		  1  			0.0000  			0.6402  			0.0000  			0.0000  			
02396 		 CST 		 030		  09 8 [09:00-16:59]		  1  			0.3710  			0.7274  			0.0000  			0.0000  			
02397 		 CST 		 012		  09 8 [09:00-16:59]		  0  			0.1437  			0.0000  			0.0000  			0.0000  			
02398 		 CST 		 001		  09 8 [09:00-16:59]		  1  			0.6363  			0.8754  			0.0000  			0.0000  			
02399 		 CST 		 002		  09 8 [09:00-16:59]		  0  			0.0000  			0.9749  			0.0000  			0.0000  			
02401 		 CST 		 001		  09 8 [09:00-16:59]		  1  			0.9950  			0.6596  			0.0000  			0.0000  			
02403 		 CST 		 003		  09 8 [09:00-16:59]		  1  			0.0000  			0.0000  			0.0000  			0.0000  			
02404 		 CST 		 002		  09 8 [09:00-16:59]		  0  			0.3701  			0.5237  			0.0000  			0.0000  			
02406 		 CST 		 016		  09 8 [09:00-16:59]		  1  			0.1427  			0.4165  			0.0000  			0.0000  			
02407 		 CST 		 028		  09 8 [09:00-16:59]		  1  			0.0000  			0.2025  			0.0000  			0.0000  			
02408 		 CST 		 001		  09 8 [09:00-16:59]		  1  			0.0336  			0.0000  			0.0000  			0.0000  			
02409 		 CST 		 001		  09 8 [09:00-16:59]		  0  			0.0000  			0.5322  			0.0000  			0.0000  			
02412 		 CST 		 033		  09 4 [09:00-12:59]		  1  			0.0000  			0.0000  			0.0000  			0.0000  			
02413 		 CST 		 004		  09 4 [09:00-12:59]		  1  			0.0000  			0.0000  			0.0000  			0.0000  			
02414 		 CST 		 035		  09 8 [09:00-16:59]		  1  			0.7712  			0.0000  			0.0000  			0.0000  			
02416 		 CST 		 005		  09 8 [09:00-16:59]		  1  			0.1224  			0.1509  			0.0000  			0.0000  			
02417 		 CST 		 003		  09 4 [09:00-12:59]		  1  			0.0000  			0.0000  			0.0000  			0.0000  			
02419 		 CST 		 002		  09 8 [09:00-16:59]		  0  			0.7641  			0.4129  			0.0000  			0.0000  			
02421 		 CST 		 003		  09 8 [09:00-16:59]		  1  			0.0000  			0.4883  			0.0000  			0.0000  			
02426 		 CST 		 023		  09 8 [09:00-16:59]		  0  			0.0000  			0.5346  			0.0000  			0.0000  			
02427 		 CST 		 005		  09 8 [09:00-16:59]		  1  			0.3799  			0.7752  			0.0000  			0.0000  			
02428 		 CST 		 004		  09 8 [09:00-16:59]		  1  			0.0000  			0.8538  			0.0000  			0.0000  			
02429 		 CST 		 042		  09 8 [09:00-16:59]		  1  			0.0000  			0.0000  			0.0000  			0.0000  			
02430 		 CST 		 046		  09 8 [09:00-16:59]		  1  			0.1795  			0.0000  			0.0000  			0.0000  			
02431 		 CST 		 001		  09 8 [09:00-16:59]		  1  			0.7316  			0.5400  			0.0000  			0.0000  			
02433 		 CST 		 049		  09 8 [09:00-16:59]		  1  			0.3928  			0.0951  			0.0000  			0.0000  			
02434 		 CST 		 002		  09 4 [09:00-12:59]		  1  			0.0000  			0.0000  			0.0000  			0.0000  			
02435 		 CST 		 041		  09 4 [09:00-12:59]		  1  			0.0000  			0.0000  			0.0000  			0.0000  			
02436 		 CST 		 001		  09 8 [09:00-16:59]		  1  			0.0000  			0.9617  			0.0000  			0.0000  			
02437 		 CST 		 008		  09 8 [09:00-16:59]		  1  			0.0288  			0.0000  			0.0000  			0.0000  			
02438 		 CST 		 002		  09 4 [09:00-12:59]		  1  			0.0000  			0.0000  			0.0000  			0.0000  			
02439 		 CST 		 001		  09 8 [09:00-16:59]		  1  			0.0000  			0.5844  			0.0000  			0.0000  			
02440 		 CST 		 003		  09 8 [09:00-16:59]		  1  			0.1686  			0.5566  			0.0000  			0.0000  			
02444 		 CST 		 046		  09 8 [09:00-16:59]		  1  			0.0000  			0.2613  			0.0000  			0.0000  			
02445 		 CST 		 001		  09 8 [09:00-16:59]		  1  			0.0000  			0.0000  			0.0000  			0.0000  			
02446 		 CST 		 003		  09 8 [09:00-16:59]		  0  			0.6303  			0.2261  			0.0000  			0.0000  			
02447 		 CST 		 001		  09 4 [09:00-12:59]		  1  			0.0000  			0.0000  			0.0000  			0.0000  			
02448 		 CST 		 005		  09 8 [09:00-16:59]		  1  			0.7666  			0.0000  			0.0000  			0.0000  			
02449 		 CST 		 001		  09 8 [09:00-16:59]		  1  			0.0000  			0.2865  			0.0000  			0.0000  			
02450 		 CST 		 003		  09 8 [09:00-16:59]		  0  			0.7792  			0.4889  			0.0000  			0.0000  			
02451 		 CST 		 003		  09 8 [09:00-16:59]		  0  			0.0000  			0.1167  			0.0000  			0.0000  			
02452 		 CST 		 002		  09 8 [09:00-16:59]		  0  			0.6872  			0.2919  			0.0000  			0.0000  			
02453 		 CST 		 025		  09 8 [09:00-16:59]		  0  			0.5195  			0.1001  			0.0000  			0.0000  			
02454 		 CST 		 003		  09 8 [09:00-16:59]		  1  			0.0000  			0.8772  			0.0000  			0.0000  			
02455 		 CST 		 001		  09 8 [09:00-16:59]		  1  			0.6745  			0.8615  			0.0000  			0.0000  			
02456 		 CST 		 001		  09 8 [09:00-16:59]		  0  			0.0028  			0.4098  			0.0000  			0.0000  			
02457 		 CST 		 011		  09 4 [09:00-12:59]		  1  			0.0000  			0.0000  			0.0000  			0.0000  			
02459 		 CST 		 002		  09 8 [09:00-16:59]		  1  			0.5728  			0.4284  			0.0000  			0.0000  			
02460 		 CST 		 001		  09 8 [09:00-16:59]		  1  			0.5025  			0.0000  			0.0000  			0.0000  			
02461 		 CST 		 018		  09 8 [09:00-16:59]		  1  			0.0000  			0.8401  			0.0000  			0.0000  			
02462 		 CST 		 015		  09 8 [09:00-16:59]		  1  			0.3215  			0.8062  			0.0000  			0.0000  			
02463 		 CST 		 003		  09 8 [09:00-16:59]		  0  			0.0496  			0.0000  			0.0000  			0.0000  			
02464 		 CST 		 024		  09 8 [09:00-16:59]		  0  			0.0000  			0.4203  			0.0000  			0.0000  			
02466 		 CST 		 022		  09 8 [09:00-16:59]		  1  			0.0000  			0.0000  			0.0000  			0.0000  			
02467 		 CST 		 001		  09 8 [09:00-16:59]		  0  			0.0000  			0.3575  			0.0000  			0.0000  			
02468 		 CST 		 003		  09 4 [09:00-12:59]		  1  			0.0000  			0.0000  			0.0000  			0.0000  			
02470 		 CST 		 003		  09 4 [09:00-12:59]		  1  			0.0000  			0.0000  			0.0000  			0.0000  			
02471 		 CST 		 046		  09 4 [09:00-12:59]		  1  			0.0000  			0.0000  			0.0000  			0.0000  			
02474 		 CST 		 026		  09 8 [09:00-16:59]		  1  			0.0000  			0.4659  			0.0000  			0.0000  			
02476 		 CST 		 006		  09 8 [09:00-16:59]		  0  			0.9078  			0.1870  			0.0000  			0.0000  			
02477 		 CST 		 004		  09 8 [09:00-16:59]		  0  			0.4488  			0.5825  			0.0000  			0.0000  			
02478 		 CST 		 003		  09 8 [09:00-16:59]		  1  			0.0000  			0.0000  			0.0000  			0.0000  			
02480 		 CST 		 001		  09 8 [09:00-16:59]		  0  			0.0000  			0.8469  			0.0000  			0.0000  			
02481 		 CST 		 012		  09 8 [09:00-16:59]		  1  			0.0000  			0.4506  			0.0000  			0.0000  			
02482 		 CST 		 043		  09 8 [09:00-16:59]		  1  			0.0000  			0.0619  			0.0000  			0.0000  			
02483 		 CST 		 001		  09 8 [09:00-16:59]		  1  			0.0000  			0.3191  			0.0000  			0.0000  			
02484 		 CST 		 001		  09 4 [09:00-12:59]		  1  			0.0000  			0.0000  			0.0000  			0.0000  			
02486 		 CST 		 003		  09 4 [09:00-12:59]		  1  			0.0000  			0.0000  			0.0000  			0.0000  			
02487 		 CST 		 002		  09 8 [09:00-16:59]		  1  			0.0000  			0.0000  			0.0000  			0.0000  			
02488 		 CST 		 018		  09 8 [09:00-16:59]		  1  			0.5006  			0.3290  			0.0000  			0.0000  			
02489 		 CST 		 029		  09 8 [09:00-16:59]		  0  			0.9896  			0.1171  			0.0000  			0.0000  			
02491 		 CST 		 001		  09 8 [09:00-16:59]		  1  			0.0000  			0.0000  			0.0000  			0.0000  			
02492 		 CST 		 005		  09 8 [09:00-16:59]		  1  			0.0000  			0.0904  			0.0000  			0.0000  			
02495 		 CST 		 003		  09 8 [09:00-16:59]		  0  			0.5778  			0.6706  			0.0000  			0.0000  			
02496 		 CST 		 001		  09 8 [09:00-16:59]		  0  			0.7288  			0.6497  			0.0000  			0.0000  			
02498 		 CST 		 001		  09 4 [09:00-12:59]		  1  			0.0000  			0.0000  			0.0000  			0.0000  			
02505 		 CST 		 002		  09 4 [09:00-12:59]		  1  			0.0000  			0.0000  			0.0000  			0.0000  			
02509 		 CST 		 003		  09 8 [09:00-16:59]		  1  			0.1686  			0.0000  			0.0000  			0.0000  			
02510 		 CST 		 004		  09 8 [09:00-16:59]		  1  			0.0000  			0.6596  			0.0000  			0.0000  			
02512 		 CST 		 012		  09 4 [09:00-12:59]		  1  			0.0000  			0.0000  			0.0000  			0.0000  			
02513 		 CST 		 001		  09 8 [09:00-16:59]		  1  			0.0000  			0.9952  			0.0000  			0.0000  			
02514 		 CST 		 002		  09 8 [09:00-16:59]		  1  			0.6064  			0.7089  			0.0000  			0.0000  			
02515 		 CST 		 023		  09 8 [09:00-16:59]		  1  			0.6300  			0.0000  			0.0000  			0.0000  			
02516 		 CST 		 006		  09 4 [09:00-12:59]		  1  			0.0000  			0.0000  			0.0000  			0.0000  			
02517 		 CST 		 002		  09 8 [09:00-16:59]		  1  			0.0000  			0.6044  			0.0000  			0.0000  			
02520 		 CST 		 002		  09 8 [09:00-16:59]		  1  			0.0000  			0.8864  			0.0000  			0.0000  			
02526 		 CST 		 045		  09 4 [09:00-12:59]		  1  			0.0000  			0.0000  			0.0000  			0.0000  			
02530 		 CST 		 021		  09 4 [09:00-12:59]		  1  			0.0000  			0.0000  			0.0000  			0.0000  			
02535 		 CST 		 002		  09 8 [09:00-16:59]		  0  			0.0000  			0.4350  			0.0000  			0.0000  			
02536 		 CST 		 034		  09 8 [09:00-16:59]		  0  			0.9113  			0.6339  			0.0000  			0.0000  			
02539 		 CST 		 003		  09 8 [09:00-16:59]		  0  			0.8315  			0.3590  			0.0000  			0.0000  			
02540 		 CST 		 003		  09 8 [09:00-16:59]		  1  			0.1718  			0.0000  			0.0000  			0.0000  			
02542 		 CST 		 002		  09 4 [09:00-12:59]		  1  			0.0000  			0.0000  			0.0000  			0.0000  			
02544 		 CST 		 002		  09 8 [09:00-16:59]		  1  			0.7172  			0.0000  			0.0000  			0.0000  			
02545 		 CST 		 002		  09 8 [09:00-16:59]		  0  			0.3999  			0.3600  			0.0000  			0.0000  			
02546 		 CST 		 033		  09 4 [09:00-12:59]		  1  			0.0000  			0.0000  			0.0000  			0.0000  			
02547 		 CST 		 003		  09 8 [09:00-16:59]		  1  			0.0000  			0.4188  			0.0000  			0.0000  			
02548 		 CST 		 001		  09 8 [09:00-16:59]		  1  			0.3216  			0.5167  			0.0000  			0.0000  			
02551 		 CST 		 001		  09 4 [09:00-12:59]		  1  			0.0000  			0.0000  			0.0000  			0.0000  			
02553 		 CST 		 002		  09 4 [09:00-12:59]		  1  			0.0000  			0.0000  			0.0000  			0.0000  			
02554 		 CST 		 046		  09 8 [09:00-16:59]		  1  			0.2165  			0.0000  			0.0000  			0.0000  			
02555 		 CST 		 001		  09 8 [09:00-16:59]		  1  			0.0000  			0.0000  			0.0000  			0.0000  			
02556 		 CST 		 002		  09 8 [09:00-16:59]		  1  			0.9867  			0.0000  			0.0000  			0.0000  			
02558 		 CST 		 002		  09 8 [09:00-16:59]		  1  			0.1884  			0.1862  			0.0000  			0.0000  			
02560 		 CST 		 005		  09 8 [09:00-16:59]		  0  			0.2225  			0.0388  			0.0000  			0.0000  			
02561 		 CST 		 003		  09 8 [09:00-16:59]		  1  			0.8769  			0.0000  			0.0000  			0.0000  			
02563 		 CST 		 003		  09 8 [09:00-16:59]		  1  			0.8096  			0.7406  			0.0000  			0.0000  			
02564 		 CST 		 042		  09 8 [09:00-16:59]		  0  			0.0494  			0.0000  			0.0000  			0.0000  			
02566 		 CST 		 003		  09 8 [09:00-16:59]		  1  			0.7225  			0.9386  			0.0000  			0.0000  			
02567 		 CST 		 003		  09 8 [09:00-16:59]		  1  			0.7374  			0.0389  			0.0000  			0.0000  			
02568 		 CST 		 001		  09 8 [09:00-16:59]		  1  			0.0000  			0.3758  			0.0000  			0.0000  			
02569 		 CST 		 003		  09 8 [09:00-16:59]		  1  			0.3700  			0.0000  			0.0000  			0.0000  			
02572 		 CST 		 002		  09 8 [09:00-16:59]		  1  			0.0000  			0.0000  			0.0000  			0.0000  			
02573 		 CST 		 003		  09 8 [09:00-16:59]		  1  			0.0738  			0.9214  			0.0000  			0.0000  			
02579 		 CST 		 031		  09 8 [09:00-16:59]		  1  			0.7469  			0.0000  			0.0000  			0.0000  			
02580 		 CST 		 001		  09 8 [09:00-16:59]		  1  			0.9126  			0.3726  			0.0000  			0.0000  			
02582 		 CST 		 003		  09 8 [09:00-16:59]		  0  			0.0000  			0.8928  			0.0000  			0.0000  			
02589 		 CST 		 002		  09 8 [09:00-16:59]		  1  			0.4666  			0.8314  			0.0000  			0.0000  			
02590 		 CST 		 002		  09 8 [09:00-16:59]		  1  			0.4402  			0.4004  			0.0000  			0.0000  			
02591 		 CST 		 003		  09 8 [09:00-16:59]		  0  			0.0000  			0.1143  			0.0000  			0.0000  			
02592 		 CST 		 039		  09 8 [09:00-16:59]		  0  			0.8959  			0.0000  			0.0000  			0.0000  			
02593 		 CST 		 002		  09 8 [09:00-16:59]		  1  			0.4016  			0.6869  			0.0000  			0.0000  			
02594 		 CST 		 031		  09 8 [09:00-16:59]		  1  			0.0000  			0.0536  			0.0000  			0.0000  			
02595 		 CST 		 020		  09 8 [09:00-16:59]		  1  			0.0000  			0.0000  			0.0000  			0.0000  			
02597 		 CST 		 001		  09 8 [09:00-16:59]		  1  			0.0000  			0.8531  			0.0000  			0.0000  			
02598 		 CST 		 005		  09 8 [09:00-16:59]		  1  			0.3124  			0.6066  			0.0000  			0.0000  			
02599 		 CST 		 003		  09 4 [09:00-12:59]		  1  			0.0000  			0.0000  			0.0000  			0.0000  			
02602 		 CST 		 009		  09 4 [09:00-12:59]		  1  			0.0000  			0.0000  			0.0000  			0.0000  			
02604 		 CST 		 014		  09 8 [09:00-16:59]		  0  			0.7727  			0.0000  			0.0000  			0.0000  			
02605 		 CST 		 004		  09 4 [09:00-12:59]		  1  			0.0000  			0.0000  			0.0000  			0.0000  			
02606 		 CST 		 001		  09 4 [09:00-12:59]		  1  			0.0000  			0.0000  			0.0000  			0.0000  			
02607 		 CST 		 003		  09 8 [09:00-16:59]		  0  			0.0000  			0.9704  			0.0000  			0.0000  			
02610 		 CST 		 020		  09 4 [09:00-12:59]		  1  			0.0000  			0.0000  			0.0000  			0.0000  			
02611 		 CST 		 002		  09 8 [09:00-16:59]		  1  			0.0000  			0.0400  			0.0000  			0.0000  			
02612 		 CST 		 015		  09 8 [09:00-16:59]		  1  			0.0000  			0.1047  			0.0000  			0.0000  			
02615 		 CST 		 030		  09 8 [09:00-16:59]		  1  			0.0000  			0.4920  			0.0000  			0.0000  			
02616 		 CST 		 003		  09 4 [09:00-12:59]		  1  			0.0000  			0.0000  			0.0000  			0.0000  			
02617 		 CST 		 001		  09 8 [09:00-16:59]		  1  			0.5940  			0.9415  			0.0000  			0.0000  			
02618 		 CST 		 002		  09 8 [09:00-16:59]		  1  			0.0000  			0.0297  			0.0000  			0.0000  			
02620 		 CST 		 002		  09 8 [09:00-16:59]		  1  			0.0000  			0.4347  			0.0000  			0.0000  			
02622 		 CST 		 004		  09 8 [09:00-16:59]		  1  			0.0000  			0.2645  			0.0000  			0.0000  			
02623 		 CST 		 001		  09 8 [09:00-16:59]		  1  			0.0000  			0.1269  			0.0000  			0.0000  			
05066 		 CST 		 001		  09 8 [09:00-16:59]		  0  			0.0000  			0.4628  			0.0000  			0.0000  			
05067 		 CST 		 018		  09 8 [09:00-16:59]		  1  			0.0000  			0.4122  			0.0000  			0.0000  			
05108 		 CST 		 005		  09 8 [09:00-16:59]		  1  			0.5069  			0.2796  			0.0000  			0.0000  			
05109 		 CST 		 035		  09 8 [09:00-16:59]		  0  			0.0000  			0.4420  			0.0000  			0.0000  			
05129 		 CST 		 035		  09 4 [09:00-12:59]		  1  			0.0000  			0.0000  			0.0000  			0.0000  			
05130 		 CST 		 002		  09 8 [09:00-16:59]		  1  			0.0000  			0.0399  			0.0000  			0.0000  			
05131 		 CST 		 004		  09 8 [09:00-16:59]		  1  			0.2913  			0.1654  			0.0000  			0.0000  			
05133 		 CST 		 002		  09 8 [09:00-16:59]		  1  			0.0000  			0.0610  			0.0000  			0.0000  			
05202 		 CST 		 003		  09 8 [09:00-16:59]		  1  			0.0000  			0.0000  			0.0000  			0.0000  			
05255 		 CST 		 001		  09 8 [09:00-16:59]		  1  			0.0000  			0.2321  			0.0000  			0.0000  			
05257 		 CST 		 003		  09 8 [09:00-16:59]		  1  			0.2740  			0.3766  			0.0000  			0.0000  			
05283 		 CST 		 005		  09 8 [09:00-16:59]		  0  			0.0000  			0.2273  			0.0000  			0.0000  			
05286 		 CST 		 001		  09 8 [09:00-16:59]		  1  			0.7050  			0.0000  			0.0000  			0.0000  			
05294 		 CST 		 024		  09 8 [09:00-16:59]		  1  			0.7753  			0.5519  			0.0000  			0.0000  			
05320 		 CST 		 003		  09 8 [09:00-16:59]		  1  			0.0438  			0.7515  			0.0000  			0.0000  			
05406 		 CST 		 001		  09 8 [09:00-16:59]		  0  			0.0000  			0.5256  			0.0000  			0.0000  			
05429 		 CST 		 042		  09 8 [09:00-16:59]		  1  			0.0000  			0.4801  			0.0000  			0.0000  			
05430 		 CST 		 003		  09 4 [09:00-12:59]		  1  			0.0000  			0.0000  			0.0000  			0.0000  			
06032 		 CST 		 003		  09 8 [09:00-16:59]		  1  			0.0000  			0.0951  			0.0000  			0.0000  			
41146 		 CST 		 005		  09 8 [09:00-16:59]		  1  			0.0000  			0.4407  			0.0000  			0.0000  			
50541 		 CST 		 003		  09 8 [09:00-16:59]		  1  			0.6372  			0.2775  			0.0000  			0.0000  			
50542 		 CST 		 003		  09 8 [09:00-16:59]		  1  			0.0000  			0.7763  			0.0000  			0.0000  			
50545 		 CST 		 013		  09 4 [09:00-12:59]		  1  			0.0000  			0.0000  			0.0000  			0.0000  			
50547 		 CST 		 030		  09 8 [09:00-16:59]		  1  			0.0975  			0.3007  			0.0000  			0.0000  			
50548 		 CST 		 011		  09 8 [09:00-16:59]		  1  			0.8663  			0.6822  			0.0000  			0.0000  			
50549 		 CST 		 001		  09 8 [09:00-16:59]		  0  			0.2455  			0.1466  			0.0000  			0.0000  			
50550 		 CST 		 044		  09 8 [09:00-16:59]		  1  			0.0000  			0.1201  			0.0000  			0.0000  			
50551 		 CST 		 003		  09 4 [09:00-12:59]		  1  			0.0000  			0.0000  			0.0000  			0.0000  			
50554 		 CST 		 001		  09 8 [09:00-16:59]		  1  			0.4658  			0.2451  			0.0000  			0.0000  			
50556 		 CST 		 001		  09 8 [09:00-16:59]		  1  			0.7780  			0.0318  			0.0000  			0.0000  			
50558 		 CST 		 004		  09 8 [09:00-16:59]		  1  			0.5548  			0.6835  			0.0000  			0.0000  			
50560 		 CST 		 002		  09 4 [09:00-12:59]		  1  			0.0000  			0.0000  			0.0000  			0.0000  			
50562 		 CST 		 002		  09 8 [09:00-16:59]		  1  			0.2562  			0.5464  			0.0000  			0.0000  			
50563 		 CST 		 048		  09 8 [09:00-16:59]		  0  			0.1281  			0.0000  			0.0000  			0.0000  			
50564 		 CST 		 003		  09 4 [09:00-12:59]		  1  			0.0000  			0.0000  			0.0000  			0.0000  			
50565 		 CST 		 043		  09 8 [09:00-16:59]		  1  			0.4700  			0.5496  			0.0000  			0.0000  			
50566 		 CST 		 002		  09 8 [09:00-16:59]		  1  			0.8776  			0.1684  			0.0000  			0.0000  			
50570 		 CST 		 024		  09 4 [09:00-12:59]		  1  			0.0000  			0.0000  			0.0000  			0.0000  			
50571 		 CST 		 002		  09 8 [09:00-16:59]		  1  			0.0000  			0.5480  			0.0000  			0.0000  			
50582 		 CST 		 002		  09 8 [09:00-16:59]		  1  			0.0000  			0.0503  			0.0000  			0.0000  			
50667 		 CST 		 030		  09 8 [09:00-16:59]		  0  			0.7720  			0.0000  			0.0000  			0.0000  			
