ONLINE REQUESTS:           160
TIME HORIZON:                  09 8 [09:00-16:59]
TIME BUCKETS IN HORIZON:   4   09 2 [09:00-10:59]     11 2 [11:00-12:59]     13 2 [13:00-14:59]     15 2 [15:00-16:59]
TIME BUCKETS FOR REQUESTS: 2   09 2 [09:00-10:59]     11 2 [11:00-12:59]
----------------------------------------------------------------------------------------------------------------------

NODE 		  VOL 		  TIME WINDOW 				  TIME REQUEST   TIME BUCKET
02319 		  025		  09 7 [09:00-16:59]		  09:05  		 1
02609 		  002		  09 7 [09:00-16:59]		  09:05  		 1
02561 		  001		  09 7 [09:00-16:59]		  09:06  		 1
02304 		  001		  09 7 [09:00-16:59]		  09:06  		 1
02187 		  001		  09 7 [09:00-16:59]		  09:08  		 1
02392 		  002		  09 7 [09:00-16:59]		  09:09  		 1
02419 		  006		  09 7 [09:00-16:59]		  09:10  		 1
02264 		  002		  09 7 [09:00-16:59]		  09:11  		 1
02357 		  002		  09 7 [09:00-16:59]		  09:12  		 1
02475 		  003		  09 7 [09:00-16:59]		  09:12  		 1
02352 		  043		  09 7 [09:00-16:59]		  09:15  		 1
50581 		  003		  09 7 [09:00-16:59]		  09:21  		 1
02281 		  004		  09 7 [09:00-16:59]		  09:22  		 1
02515 		  003		  09 7 [09:00-16:59]		  09:23  		 1
50563 		  001		  09 7 [09:00-16:59]		  09:26  		 1
02157 		  022		  09 7 [09:00-16:59]		  09:26  		 1
02041 		  005		  09 7 [09:00-16:59]		  09:26  		 1
02353 		  003		  09 7 [09:00-16:59]		  09:29  		 1
02542 		  002		  09 7 [09:00-16:59]		  09:34  		 1
02027 		  003		  09 7 [09:00-16:59]		  09:36  		 1
02546 		  025		  09 7 [09:00-16:59]		  09:37  		 1
02135 		  004		  09 7 [09:00-16:59]		  09:38  		 1
02608 		  003		  09 7 [09:00-16:59]		  09:39  		 1
02464 		  006		  09 7 [09:00-16:59]		  09:40  		 1
02146 		  003		  09 7 [09:00-16:59]		  09:43  		 1
02495 		  047		  09 7 [09:00-16:59]		  09:47  		 1
02622 		  020		  09 7 [09:00-16:59]		  09:48  		 1
02436 		  036		  09 7 [09:00-16:59]		  09:51  		 1
50567 		  037		  09 7 [09:00-16:59]		  09:53  		 1
02462 		  003		  09 7 [09:00-16:59]		  09:53  		 1
02238 		  002		  09 7 [09:00-16:59]		  09:53  		 1
02250 		  002		  09 7 [09:00-16:59]		  09:53  		 1
02397 		  002		  09 7 [09:00-16:59]		  09:58  		 1
02130 		  003		  09 7 [09:00-16:59]		  09:58  		 1
02179 		  003		  09 7 [09:00-16:59]		  09:59  		 1
02487 		  005		  09 7 [09:00-16:59]		  09:59  		 1
02246 		  002		  09 7 [09:00-16:59]		  10:00  		 1
00816 		  039		  09 7 [09:00-16:59]		  10:03  		 1
05072 		  003		  09 7 [09:00-16:59]		  10:04  		 1
02188 		  033		  09 7 [09:00-16:59]		  10:07  		 1
00718 		  044		  09 7 [09:00-16:59]		  10:08  		 1
50545 		  001		  09 7 [09:00-16:59]		  10:13  		 1
02457 		  003		  09 7 [09:00-16:59]		  10:13  		 1
01091 		  001		  09 7 [09:00-16:59]		  10:15  		 1
02514 		  003		  09 7 [09:00-16:59]		  10:16  		 1
02332 		  002		  09 7 [09:00-16:59]		  10:16  		 1
02277 		  003		  09 7 [09:00-16:59]		  10:17  		 1
02200 		  009		  09 7 [09:00-16:59]		  10:19  		 1
02396 		  003		  09 7 [09:00-16:59]		  10:22  		 1
02036 		  001		  09 7 [09:00-16:59]		  10:23  		 1
02266 		  001		  09 7 [09:00-16:59]		  10:25  		 1
02526 		  002		  09 7 [09:00-16:59]		  10:25  		 1
02362 		  001		  09 7 [09:00-16:59]		  10:26  		 1
02094 		  013		  09 7 [09:00-16:59]		  10:27  		 1
02553 		  004		  09 7 [09:00-16:59]		  10:27  		 1
02566 		  001		  09 7 [09:00-16:59]		  10:30  		 1
02612 		  013		  09 7 [09:00-16:59]		  10:34  		 1
02259 		  001		  09 7 [09:00-16:59]		  10:34  		 1
02248 		  002		  09 7 [09:00-16:59]		  10:39  		 1
02330 		  001		  09 7 [09:00-16:59]		  10:39  		 1
02257 		  009		  09 7 [09:00-16:59]		  10:53  		 1
02336 		  003		  09 7 [09:00-16:59]		  10:56  		 1
02044 		  005		  09 7 [09:00-16:59]		  10:57  		 1
02138 		  050		  09 7 [09:00-16:59]		  10:57  		 1
02027 		  003		  09 7 [09:00-16:59]		  11:03  		 2
02223 		  003		  09 7 [09:00-16:59]		  11:03  		 2
02516 		  001		  09 7 [09:00-16:59]		  11:05  		 2
02487 		  005		  09 7 [09:00-16:59]		  11:06  		 2
00691 		  037		  09 7 [09:00-16:59]		  11:06  		 2
02546 		  025		  09 7 [09:00-16:59]		  11:07  		 2
02264 		  002		  09 7 [09:00-16:59]		  11:10  		 2
00775 		  006		  09 7 [09:00-16:59]		  11:10  		 2
01356 		  036		  09 7 [09:00-16:59]		  11:10  		 2
02392 		  002		  09 7 [09:00-16:59]		  11:12  		 2
02576 		  003		  09 7 [09:00-16:59]		  11:14  		 2
02226 		  002		  09 7 [09:00-16:59]		  11:15  		 2
00818 		  012		  09 7 [09:00-16:59]		  11:15  		 2
02304 		  001		  09 7 [09:00-16:59]		  11:16  		 2
02281 		  004		  09 7 [09:00-16:59]		  11:17  		 2
02614 		  002		  09 7 [09:00-16:59]		  11:17  		 2
02597 		  006		  09 7 [09:00-16:59]		  11:19  		 2
02353 		  003		  09 7 [09:00-16:59]		  11:21  		 2
02535 		  045		  09 7 [09:00-16:59]		  11:21  		 2
02351 		  003		  09 7 [09:00-16:59]		  11:24  		 2
50545 		  001		  09 7 [09:00-16:59]		  11:27  		 2
02324 		  005		  09 7 [09:00-16:59]		  11:27  		 2
05283 		  039		  09 7 [09:00-16:59]		  11:28  		 2
02178 		  006		  09 7 [09:00-16:59]		  11:31  		 2
02525 		  002		  09 7 [09:00-16:59]		  11:31  		 2
02368 		  029		  09 7 [09:00-16:59]		  11:32  		 2
50549 		  005		  09 7 [09:00-16:59]		  11:34  		 2
02373 		  026		  09 7 [09:00-16:59]		  11:36  		 2
02461 		  029		  09 7 [09:00-16:59]		  11:40  		 2
02605 		  013		  09 7 [09:00-16:59]		  11:46  		 2
05320 		  001		  09 7 [09:00-16:59]		  11:47  		 2
02094 		  013		  09 7 [09:00-16:59]		  11:48  		 2
02135 		  004		  09 7 [09:00-16:59]		  11:49  		 2
02512 		  013		  09 7 [09:00-16:59]		  11:51  		 2
02515 		  003		  09 7 [09:00-16:59]		  11:52  		 2
02375 		  032		  09 7 [09:00-16:59]		  11:53  		 2
02260 		  022		  09 7 [09:00-16:59]		  11:56  		 2
02158 		  001		  09 7 [09:00-16:59]		  11:57  		 2
02062 		  040		  09 7 [09:00-16:59]		  11:59  		 2
05066 		  026		  09 7 [09:00-16:59]		  11:59  		 2
02464 		  006		  09 7 [09:00-16:59]		  12:00  		 2
02319 		  025		  09 7 [09:00-16:59]		  12:00  		 2
02278 		  001		  09 7 [09:00-16:59]		  12:00  		 2
02543 		  001		  09 7 [09:00-16:59]		  12:01  		 2
02530 		  017		  09 7 [09:00-16:59]		  12:01  		 2
02248 		  002		  09 7 [09:00-16:59]		  12:05  		 2
02157 		  022		  09 7 [09:00-16:59]		  12:10  		 2
50561 		  039		  09 7 [09:00-16:59]		  12:10  		 2
02402 		  003		  09 7 [09:00-16:59]		  12:11  		 2
00822 		  003		  09 7 [09:00-16:59]		  12:13  		 2
02330 		  001		  09 7 [09:00-16:59]		  12:15  		 2
02553 		  004		  09 7 [09:00-16:59]		  12:15  		 2
02164 		  015		  09 7 [09:00-16:59]		  12:16  		 2
50558 		  001		  09 7 [09:00-16:59]		  12:16  		 2
02399 		  006		  09 7 [09:00-16:59]		  12:18  		 2
02336 		  003		  09 7 [09:00-16:59]		  12:19  		 2
02246 		  002		  09 7 [09:00-16:59]		  12:20  		 2
02511 		  006		  09 7 [09:00-16:59]		  12:22  		 2
05296 		  015		  09 7 [09:00-16:59]		  12:24  		 2
02130 		  003		  09 7 [09:00-16:59]		  12:25  		 2
02102 		  001		  09 7 [09:00-16:59]		  12:25  		 2
50563 		  001		  09 7 [09:00-16:59]		  12:27  		 2
02310 		  002		  09 7 [09:00-16:59]		  12:31  		 2
02427 		  002		  09 7 [09:00-16:59]		  12:31  		 2
02200 		  009		  09 7 [09:00-16:59]		  12:32  		 2
02044 		  005		  09 7 [09:00-16:59]		  12:34  		 2
02277 		  003		  09 7 [09:00-16:59]		  12:34  		 2
02099 		  005		  09 7 [09:00-16:59]		  12:34  		 2
02495 		  047		  09 7 [09:00-16:59]		  12:35  		 2
02369 		  001		  09 7 [09:00-16:59]		  12:35  		 2
02120 		  002		  09 7 [09:00-16:59]		  12:36  		 2
02526 		  002		  09 7 [09:00-16:59]		  12:37  		 2
01097 		  022		  09 7 [09:00-16:59]		  12:37  		 2
02456 		  001		  09 7 [09:00-16:59]		  12:37  		 2
05136 		  029		  09 7 [09:00-16:59]		  12:38  		 2
02396 		  003		  09 7 [09:00-16:59]		  12:39  		 2
02559 		  009		  09 7 [09:00-16:59]		  12:39  		 2
01091 		  001		  09 7 [09:00-16:59]		  12:41  		 2
02289 		  001		  09 7 [09:00-16:59]		  12:42  		 2
00770 		  002		  09 7 [09:00-16:59]		  12:42  		 2
02257 		  009		  09 7 [09:00-16:59]		  12:43  		 2
02457 		  003		  09 7 [09:00-16:59]		  12:43  		 2
02561 		  001		  09 7 [09:00-16:59]		  12:44  		 2
02266 		  001		  09 7 [09:00-16:59]		  12:44  		 2
02542 		  002		  09 7 [09:00-16:59]		  12:45  		 2
02470 		  002		  09 7 [09:00-16:59]		  12:47  		 2
02513 		  004		  09 7 [09:00-16:59]		  12:48  		 2
02186 		  002		  09 7 [09:00-16:59]		  12:48  		 2
02436 		  036		  09 7 [09:00-16:59]		  12:50  		 2
02265 		  006		  09 7 [09:00-16:59]		  12:50  		 2
02603 		  002		  09 7 [09:00-16:59]		  12:50  		 2
02609 		  002		  09 7 [09:00-16:59]		  12:54  		 2
50560 		  002		  09 7 [09:00-16:59]		  12:54  		 2
02255 		  003		  09 7 [09:00-16:59]		  12:57  		 2
02596 		  011		  09 7 [09:00-16:59]		  12:59  		 2
02326 		  049		  09 7 [09:00-16:59]		  12:59  		 2
